(footprint "C0805" (version 20211014) (generator pcbnew)
  (layer "F.Cu")
  (tedit 0)
  (descr "<b>CAPACITOR</b><p>\nchip")
  (fp_text reference "REF**" (at -0.889 -1.016) (layer "F.SilkS")
    (effects (font (size 1.1684 1.1684) (thickness 0.1016)) (justify left bottom))
    (tstamp 29acc5f1-7d7e-495f-8872-de239857e5ff)
  )
  (fp_text value ">VALUE" (at -0.889 2.286) (layer "F.Fab")
    (effects (font (size 1.1684 1.1684) (thickness 0.1016)) (justify left bottom))
    (tstamp a0c5464e-1737-49c1-9f3c-c8b3338d5652)
  )
  (fp_poly (pts
      (xy -0.1001 0.4001)
      (xy 0.1001 0.4001)
      (xy 0.1001 -0.4001)
      (xy -0.1001 -0.4001)
    ) (layer "F.Adhes") (width 0) (fill solid) (tstamp 7b9d6b53-85d1-4bcc-a17c-c46ee4ba335d))
  (fp_line (start 1.973 -0.983) (end 1.973 0.983) (layer "F.CrtYd") (width 0.0508) (tstamp 14856e04-dc09-40e3-81a6-f9b24b62e461))
  (fp_line (start -1.973 0.983) (end -1.973 -0.983) (layer "F.CrtYd") (width 0.0508) (tstamp 2f6ebc56-0285-44ae-91d6-d15258c9f4b1))
  (fp_line (start 1.973 0.983) (end -1.973 0.983) (layer "F.CrtYd") (width 0.0508) (tstamp 5f114aea-a852-4910-965c-43444b52e05e))
  (fp_line (start -1.973 -0.983) (end 1.973 -0.983) (layer "F.CrtYd") (width 0.0508) (tstamp b488c646-5d1b-4214-96b5-26a9cdfc36ec))
  (fp_line (start -0.381 -0.66) (end 0.381 -0.66) (layer "F.Fab") (width 0.1016) (tstamp 6e9d554b-6755-4ebd-b85b-5b98739772cb))
  (fp_line (start -0.356 0.66) (end 0.381 0.66) (layer "F.Fab") (width 0.1016) (tstamp de6cc8c5-2f9f-4764-a5b2-264ac70960c7))
  (fp_poly (pts
      (xy -1.0922 0.7239)
      (xy -0.3421 0.7239)
      (xy -0.3421 -0.7262)
      (xy -1.0922 -0.7262)
    ) (layer "F.Fab") (width 0) (fill solid) (tstamp 1f7bed4f-b5e8-4c7a-b2ab-20815590dea9))
  (fp_poly (pts
      (xy 0.3556 0.7239)
      (xy 1.1057 0.7239)
      (xy 1.1057 -0.7262)
      (xy 0.3556 -0.7262)
    ) (layer "F.Fab") (width 0) (fill solid) (tstamp ead0c2bb-f063-497e-936d-9a2fb25312c0))
  (pad "1" smd rect (at -0.85 0) (size 1.3 1.5) (layers "F.Cu" "F.Paste" "F.Mask")
    (solder_mask_margin 0.0508) (tstamp 532b594e-ba44-41fc-b893-1efdb1c130ea))
  (pad "2" smd rect (at 0.85 0) (size 1.3 1.5) (layers "F.Cu" "F.Paste" "F.Mask")
    (solder_mask_margin 0.0508) (tstamp 75362ce0-1097-4cdb-b44c-4ddcb16dd1e7))
)
