(footprint "R0805" (version 20211014) (generator pcbnew)
  (layer "F.Cu")
  (tedit 0)
  (descr "<b>RESISTOR</b><p>\nchip")
  (fp_text reference "REF**" (at -0.762 -1.016) (layer "F.SilkS")
    (effects (font (size 1.1684 1.1684) (thickness 0.1016)) (justify left bottom))
    (tstamp 529624d5-4422-4d60-bbf7-4d1400207749)
  )
  (fp_text value ">VALUE" (at -0.762 2.286) (layer "F.Fab")
    (effects (font (size 1.1684 1.1684) (thickness 0.1016)) (justify left bottom))
    (tstamp b91ad4b1-4c45-40f9-8328-e0dd73f2a921)
  )
  (fp_poly (pts
      (xy -0.1999 0.5001)
      (xy 0.1999 0.5001)
      (xy 0.1999 -0.5001)
      (xy -0.1999 -0.5001)
    ) (layer "F.Adhes") (width 0) (fill solid) (tstamp c2db734e-d0f7-4e55-9440-459f975a749c))
  (fp_poly (pts
      (xy -1.0668 0.6985)
      (xy -0.4168 0.6985)
      (xy -0.4168 -0.7015)
      (xy -1.0668 -0.7015)
    ) (layer "F.SilkS") (width 0) (fill solid) (tstamp fb45c709-b2ac-4f13-88b4-e44ee9ebf6bc))
  (fp_poly (pts
      (xy 0.4064 0.6985)
      (xy 1.0564 0.6985)
      (xy 1.0564 -0.7015)
      (xy 0.4064 -0.7015)
    ) (layer "F.SilkS") (width 0) (fill solid) (tstamp fcd8319e-5f05-4ced-9b83-4eb475f49391))
  (fp_line (start 1.973 -0.983) (end 1.973 0.983) (layer "F.CrtYd") (width 0.0508) (tstamp 55e2abd2-ece5-4fbe-aaec-a15810540069))
  (fp_line (start -1.973 0.983) (end -1.973 -0.983) (layer "F.CrtYd") (width 0.0508) (tstamp 5a0aac5f-badd-447a-8aa3-00169adc0950))
  (fp_line (start -1.973 -0.983) (end 1.973 -0.983) (layer "F.CrtYd") (width 0.0508) (tstamp a02b717c-abbd-42ab-b81a-ae5f59d143e3))
  (fp_line (start 1.973 0.983) (end -1.973 0.983) (layer "F.CrtYd") (width 0.0508) (tstamp b4664aef-a91c-409e-982a-bc5817ce8259))
  (fp_line (start -0.41 0.635) (end 0.41 0.635) (layer "F.Fab") (width 0.1524) (tstamp b3806b06-4c46-4b1f-b3c2-7edf0de75d47))
  (fp_line (start -0.41 -0.635) (end 0.41 -0.635) (layer "F.Fab") (width 0.1524) (tstamp dfd99983-8fe4-4268-9827-6967263f5945))
  (pad "1" smd rect (at -1 0) (size 1.1 1.4) (layers "F.Cu" "F.Paste" "F.Mask")
    (solder_mask_margin 0.0508) (tstamp 269b46c2-8d40-4d19-8b40-3eacf38d7c77))
  (pad "2" smd rect (at 1 0) (size 1.1 1.4) (layers "F.Cu" "F.Paste" "F.Mask")
    (solder_mask_margin 0.0508) (tstamp 9e0c4256-7c63-4871-b205-c97efe2a7e8b))
)
