(footprint "DB25FC-5745114-2" (version 20211014) (generator pcbnew)
  locked (layer "F.Cu")
  (tedit 59E7C803)
  (descr "Connector DB25 FEMALE")
  (tags "CONN DB25")
  (attr through_hole)
  (fp_text reference "REF**" (at -0.1778 -13.462) (layer "F.SilkS")
    (effects (font (size 0.55 0.55) (thickness 0.1375)))
    (tstamp 4c74f617-0df1-49e5-9488-10bc7c6732a3)
  )
  (fp_text value "DB25" (at 0 -6.35) (layer "F.Fab")
    (effects (font (size 0.55 0.55) (thickness 0.1375)))
    (tstamp b0679750-4535-4ad9-a7e2-28307ec9717a)
  )
  (fp_line (start 20.32 -12.065) (end 20.32 -15.24) (layer "F.SilkS") (width 0.15) (tstamp 0386b23b-7fd9-4e8f-bffb-9cdeb592461f))
  (fp_line (start -20.32 -22.1996) (end -20.32 -16.002) (layer "F.SilkS") (width 0.15) (tstamp 1fefdc7c-5f9a-4e23-b5ef-00771620b473))
  (fp_line (start -26.67 2.54) (end -19.05 2.54) (layer "F.SilkS") (width 0.15) (tstamp 22dcf3c6-f421-472c-8d66-f11110dc6c19))
  (fp_line (start 20.955 -15.24) (end 20.955 -6.35) (layer "F.SilkS") (width 0.15) (tstamp 242102d1-644b-45a3-a655-d7c9d53d0cd8))
  (fp_line (start -26.67 2.54) (end -26.67 -11.43) (layer "F.SilkS") (width 0.15) (tstamp 255ceefe-6441-4016-8eed-39773530809c))
  (fp_line (start 19.05 -6.35) (end 19.05 2.54) (layer "F.SilkS") (width 0.15) (tstamp 31a11459-69c0-4976-b8f7-c8b959d6d70a))
  (fp_line (start 26.67 -11.43) (end 26.67 2.54) (layer "F.SilkS") (width 0.15) (tstamp 39cbb1e5-51bb-4656-8ef8-3e69db5defc5))
  (fp_line (start -19.05 -6.35) (end -19.05 2.54) (layer "F.SilkS") (width 0.15) (tstamp 5877b782-0a2e-4c97-9a25-18569dd3b853))
  (fp_line (start -20.32 -12.065) (end 20.32 -12.065) (layer "F.SilkS") (width 0.15) (tstamp 63349977-c833-40c1-8e03-43a9d543aaa5))
  (fp_line (start -20.32 -12.065) (end -20.32 -15.24) (layer "F.SilkS") (width 0.15) (tstamp 691502c9-2be4-45ab-8972-5a2845de4767))
  (fp_line (start 26.67 -11.43) (end 26.67 -16.002) (layer "F.SilkS") (width 0.15) (tstamp 727404a6-a629-48fd-989b-6ebc76eed67c))
  (fp_line (start -20.955 -15.24) (end -20.955 -6.35) (layer "F.SilkS") (width 0.15) (tstamp 7f69c4a3-ecda-44e4-b415-7781ce8c87be))
  (fp_line (start 26.67 -16.002) (end -26.67 -16.002) (layer "F.SilkS") (width 0.15) (tstamp 9c296175-8603-4fa8-9761-a3f789de2b93))
  (fp_line (start -26.67 -15.24) (end 26.67 -15.24) (layer "F.SilkS") (width 0.15) (tstamp a73ce9a8-d764-4e33-a2b9-fb535f0eea24))
  (fp_line (start 26.67 -6.35) (end 19.05 -6.35) (layer "F.SilkS") (width 0.15) (tstamp a9be47da-b1e2-470a-a7cb-00ad20409086))
  (fp_line (start 19.05 2.54) (end 26.67 2.54) (layer "F.SilkS") (width 0.15) (tstamp c1a7a6b3-fe96-4209-aa73-b908967c8d9f))
  (fp_line (start -26.67 -6.35) (end -19.05 -6.35) (layer "F.SilkS") (width 0.15) (tstamp e038ccf7-4a17-4cbf-898a-e845ae1a7eac))
  (fp_line (start -20.32 -22.1996) (end 20.32 -22.1996) (layer "F.SilkS") (width 0.15) (tstamp ed0ecbdd-f1cc-498a-b187-a58efbaf183e))
  (fp_line (start -26.67 -16.002) (end -26.67 -11.43) (layer "F.SilkS") (width 0.15) (tstamp f0f77089-af9c-4698-9a90-b38b0c477c71))
  (fp_line (start 20.32 -22.1996) (end 20.32 -16.002) (layer "F.SilkS") (width 0.15) (tstamp f8616421-4a11-4980-9840-2fcdeeb27a9a))
  (fp_line (start -26.924 -22.86) (end 26.924 -22.86) (layer "F.CrtYd") (width 0.15) (tstamp 071e4133-bc6a-445b-852a-7ba62d7b21f3))
  (fp_line (start 26.924 3.5306) (end -26.924 3.5306) (layer "F.CrtYd") (width 0.15) (tstamp 3b47f849-fbb0-44db-a21a-ec6155080dba))
  (fp_line (start -26.924 3.5306) (end -26.924 -22.86) (layer "F.CrtYd") (width 0.15) (tstamp 65768d5f-9942-4139-8e4f-68baafc8fb2b))
  (fp_line (start 27.8638 -22.86) (end 27.8638 -22.86) (layer "F.CrtYd") (width 0.15) (tstamp 82ee4ec7-af3d-4882-bbc6-771e8eb149b8))
  (fp_line (start 26.924 -22.86) (end 26.924 3.5306) (layer "F.CrtYd") (width 0.15) (tstamp 8550017d-d5c7-4289-9ce8-9aae157bbb93))
  (pad "0" thru_hole circle locked (at 23.5204 0) (size 3.81 3.81) (drill 3.048) (layers *.Cu *.Mask "F.SilkS") (tstamp 141ff2dd-6917-42f6-886d-de3e16b28e03))
  (pad "0" thru_hole circle locked (at -23.5204 0) (size 3.81 3.81) (drill 3.048) (layers *.Cu *.Mask "F.SilkS") (tstamp 4d399522-4b3e-4924-b7bb-09bc38112372))
  (pad "1" thru_hole rect locked (at -16.6116 1.4224) (size 1.524 1.524) (drill 1.1938) (layers *.Cu *.Mask "F.SilkS") (tstamp ec2f6848-5010-4f9a-b837-52e27ed72aec))
  (pad "2" thru_hole circle locked (at -13.843 1.4224) (size 1.524 1.524) (drill 1.1938) (layers *.Cu *.Mask "F.SilkS") (tstamp 4361f63f-f2ff-441f-9180-3c4752d3606f))
  (pad "3" thru_hole circle locked (at -11.0744 1.4224) (size 1.524 1.524) (drill 1.1938) (layers *.Cu *.Mask "F.SilkS") (tstamp af1b353c-2091-40d8-a194-d7a8d704e1d0))
  (pad "4" thru_hole circle locked (at -8.3058 1.4224) (size 1.524 1.524) (drill 1.1938) (layers *.Cu *.Mask "F.SilkS") (tstamp 6bdb96d2-89bd-419c-a144-fe39a8105c58))
  (pad "5" thru_hole circle locked (at -5.5372 1.4224) (size 1.524 1.524) (drill 1.1938) (layers *.Cu *.Mask "F.SilkS") (tstamp 24791d48-3f15-47b5-9ef9-61656e9e5e62))
  (pad "6" thru_hole circle locked (at -2.7686 1.4224) (size 1.524 1.524) (drill 1.1938) (layers *.Cu *.Mask "F.SilkS") (tstamp a550b747-d870-4dfb-a138-7dcb96f09121))
  (pad "7" thru_hole circle locked (at 0 1.4224) (size 1.524 1.524) (drill 1.1938) (layers *.Cu *.Mask "F.SilkS") (tstamp 76f78383-f714-4a4b-8f4d-886bbfd15f35))
  (pad "8" thru_hole circle locked (at 2.7686 1.4224) (size 1.524 1.524) (drill 1.1938) (layers *.Cu *.Mask "F.SilkS") (tstamp 9d5676dc-77f8-4434-9717-b30908a4d43f))
  (pad "9" thru_hole circle locked (at 5.5372 1.4224) (size 1.524 1.524) (drill 1.1938) (layers *.Cu *.Mask "F.SilkS") (tstamp 7f4b3687-d1fe-43e2-a49f-de59229adc26))
  (pad "10" thru_hole circle locked (at 8.3058 1.4224) (size 1.524 1.524) (drill 1.1938) (layers *.Cu *.Mask "F.SilkS") (tstamp e6e2903b-0682-49d7-a5c4-a0d6af8c439a))
  (pad "11" thru_hole circle locked (at 11.0744 1.4224) (size 1.524 1.524) (drill 1.1938) (layers *.Cu *.Mask "F.SilkS") (tstamp 1581ad3f-d46b-42a2-b2ec-6b30e8e2811f))
  (pad "12" thru_hole circle locked (at 13.843 1.4224) (size 1.524 1.524) (drill 1.1938) (layers *.Cu *.Mask "F.SilkS") (tstamp 04266145-a926-471b-87ef-dc6e463ac82c))
  (pad "13" thru_hole circle locked (at 16.6116 1.4224) (size 1.524 1.524) (drill 1.1938) (layers *.Cu *.Mask "F.SilkS") (tstamp c0b04658-d9cc-438e-ab86-ba8698a8f1b2))
  (pad "14" thru_hole circle locked (at -15.2273 -1.4224) (size 1.524 1.524) (drill 1.1938) (layers *.Cu *.Mask "F.SilkS") (tstamp 423a1efc-ac9f-4d7c-8962-5aa3e1140915))
  (pad "15" thru_hole circle locked (at -12.4587 -1.4224) (size 1.524 1.524) (drill 1.1938) (layers *.Cu *.Mask "F.SilkS") (tstamp 304ba409-d787-42b5-b83e-18a68c6caa60))
  (pad "16" thru_hole circle locked (at -9.6901 -1.4224) (size 1.524 1.524) (drill 1.1938) (layers *.Cu *.Mask "F.SilkS") (tstamp 2608e9c2-7147-410c-99c1-78b4c3d6638f))
  (pad "17" thru_hole circle locked (at -6.9215 -1.4224) (size 1.524 1.524) (drill 1.1938) (layers *.Cu *.Mask "F.SilkS") (tstamp 4350a96f-cfcc-4e23-85ba-064a3a713826))
  (pad "18" thru_hole circle locked (at -4.1529 -1.4224) (size 1.524 1.524) (drill 1.1938) (layers *.Cu *.Mask "F.SilkS") (tstamp f626dbd5-edaa-48fb-b2fb-7c8e6a42714a))
  (pad "19" thru_hole circle locked (at -1.3843 -1.4224) (size 1.524 1.524) (drill 1.1938) (layers *.Cu *.Mask "F.SilkS") (tstamp 3c70590d-73bf-4aa4-b5f6-a363e7fd7355))
  (pad "20" thru_hole circle locked (at 1.3843 -1.4224) (size 1.524 1.524) (drill 1.1938) (layers *.Cu *.Mask "F.SilkS") (tstamp 83be884d-ea13-4b74-8a02-66ef66027ae7))
  (pad "21" thru_hole circle locked (at 4.1529 -1.4224) (size 1.524 1.524) (drill 1.1938) (layers *.Cu *.Mask "F.SilkS") (tstamp 37e3055e-749e-4d08-8e62-af07274bf48f))
  (pad "22" thru_hole circle locked (at 6.9215 -1.4224) (size 1.524 1.524) (drill 1.1938) (layers *.Cu *.Mask "F.SilkS") (tstamp cc519987-7da3-4576-94b9-70a805713762))
  (pad "23" thru_hole circle locked (at 9.6901 -1.4224) (size 1.524 1.524) (drill 1.1938) (layers *.Cu *.Mask "F.SilkS") (tstamp 214652a6-9f63-4638-afa3-c56c925a8ff8))
  (pad "24" thru_hole circle locked (at 12.4587 -1.4224) (size 1.524 1.524) (drill 1.1938) (layers *.Cu *.Mask "F.SilkS") (tstamp f54f36ff-49f0-4801-a062-31079d67afdc))
  (pad "25" thru_hole circle locked (at 15.2273 -1.4224) (size 1.524 1.524) (drill 1.1938) (layers *.Cu *.Mask "F.SilkS") (tstamp 44a79c26-c421-4237-b70b-3e4a5ea1fa72))
  (model "Connect.3dshapes/DB25FC.wrl"
    (offset (xyz 0 0 0))
    (scale (xyz 1 1 1))
    (rotate (xyz 0 0 0))
  )
)
