(footprint "FB_2220" (version 20211014) (generator pcbnew)
  (layer "F.Cu")
  (tedit 5807F9F5)
  (descr "Ferrite Bead 5550 [2220]")
  (tags "inductor ferrite bead 2220 5550")
  (attr smd)
  (fp_text reference "REF**" (at 0 -4) (layer "F.SilkS")
    (effects (font (size 0.55 0.55) (thickness 0.1375)))
    (tstamp f648760c-1ef9-4a92-8211-7374fa0a518c)
  )
  (fp_text value "BEAD" (at 0 4) (layer "F.Fab")
    (effects (font (size 0.55 0.55) (thickness 0.1375)))
    (tstamp 2ea97ea8-42ec-4141-9e1f-07d6671f594e)
  )
  (fp_line (start -2.4 3.3) (end 2.3 3.3) (layer "F.SilkS") (width 0.15) (tstamp a9a1e96a-9248-4d7f-8553-0db761fa9a31))
  (fp_line (start 2.3 -3.3) (end -2.3 -3.3) (layer "F.SilkS") (width 0.15) (tstamp dc1d9bb4-b721-4c16-aee5-e3bb588470c2))
  (fp_line (start 5 -3.4) (end 5 3.4) (layer "F.CrtYd") (width 0.05) (tstamp 20ec459d-ad76-4abf-9406-d2d004b611c9))
  (fp_line (start -5 -3.4) (end -5 3.4) (layer "F.CrtYd") (width 0.05) (tstamp 657d3170-3ca7-467c-b1e8-e570407f462f))
  (fp_line (start -5 3.4) (end 5 3.4) (layer "F.CrtYd") (width 0.05) (tstamp 77058c8b-4bfa-4bc1-b46d-0f8b15a217fb))
  (fp_line (start -5 -3.4) (end 5 -3.4) (layer "F.CrtYd") (width 0.05) (tstamp 77d9e6bd-d40d-4bf5-99b8-0e02a8b47d4b))
  (pad "1" smd rect (at -3.065 0) (size 3.06 6.1) (layers "F.Cu" "F.Paste" "F.Mask") (tstamp bffac788-6cc5-4b02-aaa6-797dee0a0c71))
  (pad "2" smd rect (at 3.065 0) (size 3.06 6.1) (layers "F.Cu" "F.Paste" "F.Mask") (tstamp 78843fd8-7a07-4457-b8cc-454a8bef1e5b))
  (model "Capacitors_SMD.3dshapes/C_2220.wrl"
    (offset (xyz 0 0 0))
    (scale (xyz 1 1 1))
    (rotate (xyz 0 0 0))
  )
)
