(footprint "LED-DIALIGHT-553" (version 20211014) (generator pcbnew)
  (layer "F.Cu")
  (tedit 580AA7C8)
  (descr "http://www.farnell.com/cad/686934.pdf")
  (attr through_hole)
  (fp_text reference "REF**" (at 0 -3.81) (layer "F.SilkS")
    (effects (font (size 0.55 0.55) (thickness 0.1375)))
    (tstamp 2ac9e906-553a-4add-99e6-e0367ec8dc44)
  )
  (fp_text value "553-0121" (at 0 3.175) (layer "F.Fab")
    (effects (font (size 0.55 0.55) (thickness 0.1375)))
    (tstamp f72997f7-5655-41d5-8795-704a12b19a1b)
  )
  (fp_line (start 2.54 2.286) (end -5.715 2.286) (layer "F.SilkS") (width 0.15) (tstamp 321a11e5-e61f-4dc6-bfe1-08eb9326e60b))
  (fp_line (start 2.54 -2.286) (end 2.54 2.286) (layer "F.SilkS") (width 0.15) (tstamp 3f10b307-fbd6-4d26-ba2a-983a0b123b22))
  (fp_line (start -5.715 -2.286) (end 2.54 -2.286) (layer "F.SilkS") (width 0.15) (tstamp 404d3184-adf3-46a2-a9a0-a9866194a1f2))
  (fp_line (start -5.715 -1.778) (end -7.112 -1.778) (layer "F.SilkS") (width 0.15) (tstamp 4400cc82-2ad7-4de9-90cd-a7fa25fcf788))
  (fp_line (start -5.715 2.286) (end -5.715 -2.286) (layer "F.SilkS") (width 0.15) (tstamp c31b9b96-0a25-4100-bd04-090418bd106b))
  (fp_line (start -5.715 1.778) (end -7.112 1.778) (layer "F.SilkS") (width 0.15) (tstamp caa8d79d-d5e7-44c5-adeb-09e04c1fafcf))
  (fp_arc (start -7.112 1.778) (mid -8.89 0) (end -7.112 -1.778) (layer "F.SilkS") (width 0.15) (tstamp f9807e28-87aa-4bce-bc94-14a2ac444732))
  (fp_line (start 2.54 2.286) (end 2.54 -2.286) (layer "B.CrtYd") (width 0.15) (tstamp 61e460c0-d1a4-43e4-8bd6-9088c91759e3))
  (fp_line (start -5.715 -2.286) (end 2.54 -2.286) (layer "B.CrtYd") (width 0.15) (tstamp 9901b07a-445b-4bb9-8ce8-de7817dd25da))
  (fp_line (start -5.715 2.286) (end -5.715 -2.286) (layer "B.CrtYd") (width 0.15) (tstamp a4fdf29f-dd50-4686-8c16-a24de1d1defb))
  (fp_line (start -5.715 2.286) (end 2.54 2.286) (layer "B.CrtYd") (width 0.15) (tstamp cf43def2-1825-4c27-b3ca-a1db45a94daa))
  (pad "1" thru_hole rect (at -1.27 1.27 180) (size 1.524 1.524) (drill 1.0922) (layers *.Cu *.Mask "F.SilkS") (tstamp 7e4c5a84-39eb-4b67-a13a-e32aed27aade))
  (pad "2" thru_hole circle (at -1.27 -1.27 180) (size 1.524 1.524) (drill 1.0922) (layers *.Cu *.Mask "F.SilkS") (tstamp 47f0992a-0f83-491a-b88e-8a5b3f0372f8))
  (pad "3" thru_hole circle (at 1.27 1.27 180) (size 1.524 1.524) (drill 1.0922) (layers *.Cu *.Mask "F.SilkS") (tstamp 476bdb0c-713d-49e3-96a0-4bbd67804bd6))
  (pad "4" thru_hole circle (at 1.27 -1.27 180) (size 1.524 1.524) (drill 1.0922) (layers *.Cu *.Mask "F.SilkS") (tstamp b790e43c-cfb8-48a1-8fd2-49355d012983))
)
