(kicad_sch (version 20211123) (generator eeschema)

  (uuid 41990f56-c5b9-4b5d-a174-29051cc4da35)

  (paper "A4")

  (title_block
    (title "KiwiSDR Prototype, March 2016")
    (date "20 feb 2016")
    (rev "0.5")
    (company "John Seamons, ZL/KF6VO")
  )

  (lib_symbols
    (symbol "kiwi-rescue:1.0" (power) (pin_names (offset 0)) (in_bom yes) (on_board yes)
      (property "Reference" "#PWR" (id 0) (at 0 -1.016 0)
        (effects (font (size 0.762 0.762)) hide)
      )
      (property "Value" "1.0" (id 1) (at 0 2.794 0)
        (effects (font (size 0.762 0.762)))
      )
      (property "Footprint" "" (id 2) (at 0 0 0)
        (effects (font (size 1.524 1.524)))
      )
      (property "Datasheet" "" (id 3) (at 0 0 0)
        (effects (font (size 1.524 1.524)))
      )
      (symbol "1.0_0_0"
        (pin power_in line (at 0 0 90) (length 0) hide
          (name "1.0" (effects (font (size 0.762 0.762))))
          (number "1" (effects (font (size 0.762 0.762))))
        )
      )
      (symbol "1.0_0_1"
        (polyline
          (pts
            (xy 0 0)
            (xy 0 1.016)
            (xy 0 1.016)
          )
          (stroke (width 0) (type default) (color 0 0 0 0))
          (fill (type none))
        )
        (circle (center 0 1.524) (radius 0.508)
          (stroke (width 0) (type default) (color 0 0 0 0))
          (fill (type none))
        )
      )
    )
    (symbol "kiwi-rescue:1.8" (power) (pin_names (offset 0)) (in_bom yes) (on_board yes)
      (property "Reference" "#PWR" (id 0) (at 0 -1.016 0)
        (effects (font (size 0.762 0.762)) hide)
      )
      (property "Value" "1.8" (id 1) (at 0 2.794 0)
        (effects (font (size 0.762 0.762)))
      )
      (property "Footprint" "" (id 2) (at 0 0 0)
        (effects (font (size 1.524 1.524)))
      )
      (property "Datasheet" "" (id 3) (at 0 0 0)
        (effects (font (size 1.524 1.524)))
      )
      (symbol "1.8_0_0"
        (pin power_in line (at 0 0 90) (length 0) hide
          (name "1.8" (effects (font (size 0.762 0.762))))
          (number "1" (effects (font (size 0.762 0.762))))
        )
      )
      (symbol "1.8_0_1"
        (polyline
          (pts
            (xy 0 0)
            (xy 0 1.016)
            (xy 0 1.016)
          )
          (stroke (width 0) (type default) (color 0 0 0 0))
          (fill (type none))
        )
        (circle (center 0 1.524) (radius 0.508)
          (stroke (width 0) (type default) (color 0 0 0 0))
          (fill (type none))
        )
      )
    )
    (symbol "kiwi-rescue:5V" (power) (pin_names (offset 1.016)) (in_bom yes) (on_board yes)
      (property "Reference" "#PWR" (id 0) (at 0 2.286 0)
        (effects (font (size 0.508 0.508)) hide)
      )
      (property "Value" "5V" (id 1) (at 0 2.286 0)
        (effects (font (size 0.762 0.762)))
      )
      (property "Footprint" "" (id 2) (at 0 0 0)
        (effects (font (size 1.524 1.524)))
      )
      (property "Datasheet" "" (id 3) (at 0 0 0)
        (effects (font (size 1.524 1.524)))
      )
      (symbol "5V_0_0"
        (pin power_in line (at 0 0 90) (length 0) hide
          (name "5V" (effects (font (size 0.508 0.508))))
          (number "1" (effects (font (size 0.508 0.508))))
        )
      )
      (symbol "5V_0_1"
        (polyline
          (pts
            (xy 0 0)
            (xy 0 0.762)
            (xy 0 0.762)
            (xy 0 0.762)
          )
          (stroke (width 0) (type default) (color 0 0 0 0))
          (fill (type none))
        )
        (circle (center 0 1.27) (radius 0.508)
          (stroke (width 0) (type default) (color 0 0 0 0))
          (fill (type none))
        )
      )
    )
    (symbol "kiwi-rescue:C" (pin_numbers hide) (pin_names (offset 0.254)) (in_bom yes) (on_board yes)
      (property "Reference" "C" (id 0) (at 0 2.54 0)
        (effects (font (size 1.016 1.016)) (justify left))
      )
      (property "Value" "C" (id 1) (at 0 -2.54 0)
        (effects (font (size 1.016 1.016)) (justify left))
      )
      (property "Footprint" "" (id 2) (at 0.9652 -3.81 0)
        (effects (font (size 0.762 0.762)))
      )
      (property "Datasheet" "" (id 3) (at 0 0 0)
        (effects (font (size 1.524 1.524)))
      )
      (property "Field4" "SPECS1" (id 4) (at 0 -3.81 0)
        (effects (font (size 1.016 1.016)) (justify left) hide)
      )
      (property "Field5" "SPECS2" (id 5) (at 0 -5.08 0)
        (effects (font (size 1.016 1.016)) (justify left) hide)
      )
      (property "ki_fp_filters" "SM* C? C1-1" (id 6) (at 0 0 0)
        (effects (font (size 1.27 1.27)) hide)
      )
      (symbol "C_0_1"
        (polyline
          (pts
            (xy -2.032 -0.762)
            (xy 2.032 -0.762)
          )
          (stroke (width 0.508) (type default) (color 0 0 0 0))
          (fill (type none))
        )
        (polyline
          (pts
            (xy -2.032 0.762)
            (xy 2.032 0.762)
          )
          (stroke (width 0.508) (type default) (color 0 0 0 0))
          (fill (type none))
        )
      )
      (symbol "C_1_1"
        (pin passive line (at 0 5.08 270) (length 4.318)
          (name "~" (effects (font (size 1.016 1.016))))
          (number "1" (effects (font (size 1.016 1.016))))
        )
        (pin passive line (at 0 -5.08 90) (length 4.318)
          (name "~" (effects (font (size 1.016 1.016))))
          (number "2" (effects (font (size 1.016 1.016))))
        )
      )
    )
    (symbol "kiwi-rescue:COIL" (pin_numbers hide) (pin_names (offset 1.016) hide) (in_bom yes) (on_board yes)
      (property "Reference" "L" (id 0) (at 0 2.54 0)
        (effects (font (size 1.27 1.27)))
      )
      (property "Value" "COIL" (id 1) (at 0 -2.54 0)
        (effects (font (size 1.27 1.27)))
      )
      (property "Footprint" "" (id 2) (at -3.81 0 90)
        (effects (font (size 1.27 1.27)) hide)
      )
      (property "Datasheet" "" (id 3) (at 0 0 90)
        (effects (font (size 1.524 1.524)) hide)
      )
      (symbol "COIL_1_1"
        (arc (start -3.81 1.27) (mid -4.708 0.898) (end -5.08 0)
          (stroke (width 0) (type default) (color 0 0 0 0))
          (fill (type none))
        )
        (arc (start -2.54 0) (mid -2.912 0.898) (end -3.81 1.27)
          (stroke (width 0) (type default) (color 0 0 0 0))
          (fill (type none))
        )
        (arc (start -1.27 1.27) (mid -2.168 0.898) (end -2.54 0)
          (stroke (width 0) (type default) (color 0 0 0 0))
          (fill (type none))
        )
        (arc (start 0 0) (mid -0.372 0.898) (end -1.27 1.27)
          (stroke (width 0) (type default) (color 0 0 0 0))
          (fill (type none))
        )
        (arc (start 1.27 1.27) (mid 0.372 0.898) (end 0 0)
          (stroke (width 0) (type default) (color 0 0 0 0))
          (fill (type none))
        )
        (arc (start 2.54 0) (mid 2.168 0.898) (end 1.27 1.27)
          (stroke (width 0) (type default) (color 0 0 0 0))
          (fill (type none))
        )
        (arc (start 3.81 1.27) (mid 2.912 0.898) (end 2.54 0)
          (stroke (width 0) (type default) (color 0 0 0 0))
          (fill (type none))
        )
        (arc (start 5.08 0) (mid 4.708 0.898) (end 3.81 1.27)
          (stroke (width 0) (type default) (color 0 0 0 0))
          (fill (type none))
        )
        (pin passive line (at -7.62 0 0) (length 2.54)
          (name "1" (effects (font (size 1.016 1.016))))
          (number "1" (effects (font (size 1.016 1.016))))
        )
        (pin passive line (at 7.62 0 180) (length 2.54)
          (name "2" (effects (font (size 1.016 1.016))))
          (number "2" (effects (font (size 1.016 1.016))))
        )
      )
    )
    (symbol "kiwi-rescue:DIODE_SCHOTTKY" (pin_numbers hide) (pin_names (offset 0) hide) (in_bom yes) (on_board yes)
      (property "Reference" "D" (id 0) (at 0 2.54 0)
        (effects (font (size 1.27 1.27)))
      )
      (property "Value" "DIODE_SCHOTTKY" (id 1) (at 0 -2.54 0)
        (effects (font (size 1.27 1.27)))
      )
      (property "Footprint" "" (id 2) (at 0 0 0)
        (effects (font (size 1.27 1.27)) hide)
      )
      (property "Datasheet" "" (id 3) (at 0 0 0)
        (effects (font (size 1.27 1.27)) hide)
      )
      (symbol "DIODE_SCHOTTKY_0_1"
        (polyline
          (pts
            (xy 1.27 1.27)
            (xy 1.27 -1.27)
          )
          (stroke (width 0) (type default) (color 0 0 0 0))
          (fill (type none))
        )
        (polyline
          (pts
            (xy 1.27 -1.27)
            (xy 1.778 -1.27)
            (xy 1.778 -0.762)
          )
          (stroke (width 0) (type default) (color 0 0 0 0))
          (fill (type none))
        )
        (polyline
          (pts
            (xy 1.27 1.27)
            (xy 0.762 1.27)
            (xy 0.762 0.762)
          )
          (stroke (width 0) (type default) (color 0 0 0 0))
          (fill (type none))
        )
        (polyline
          (pts
            (xy 1.27 0)
            (xy -1.27 1.27)
            (xy -1.27 -1.27)
            (xy 1.27 0)
            (xy -1.27 0)
          )
          (stroke (width 0) (type default) (color 0 0 0 0))
          (fill (type none))
        )
        (pin passive line (at 5.08 0 180) (length 3.81)
          (name "K" (effects (font (size 1.27 1.27))))
          (number "1" (effects (font (size 1.27 1.27))))
        )
        (pin passive line (at -5.08 0 0) (length 3.81)
          (name "A" (effects (font (size 1.27 1.27))))
          (number "2" (effects (font (size 1.27 1.27))))
        )
      )
    )
    (symbol "kiwi-rescue:GND" (power) (pin_names (offset 0)) (in_bom yes) (on_board yes)
      (property "Reference" "#GND" (id 0) (at 0 0 0)
        (effects (font (size 0.762 0.762)) hide)
      )
      (property "Value" "GND" (id 1) (at 0 -1.778 0)
        (effects (font (size 0.762 0.762)) hide)
      )
      (property "Footprint" "" (id 2) (at 0 0 0)
        (effects (font (size 1.524 1.524)))
      )
      (property "Datasheet" "" (id 3) (at 0 0 0)
        (effects (font (size 1.524 1.524)))
      )
      (symbol "GND_0_1"
        (polyline
          (pts
            (xy -1.27 0)
            (xy 0 -1.27)
            (xy 1.27 0)
            (xy -1.27 0)
          )
          (stroke (width 0) (type default) (color 0 0 0 0))
          (fill (type none))
        )
      )
      (symbol "GND_1_1"
        (pin power_in line (at 0 0 90) (length 0) hide
          (name "GND" (effects (font (size 0.762 0.762))))
          (number "1" (effects (font (size 0.762 0.762))))
        )
      )
    )
    (symbol "kiwi-rescue:PWR_DRV" (power) (pin_names (offset 0)) (in_bom yes) (on_board yes)
      (property "Reference" "#PWR" (id 0) (at -1.27 2.54 0)
        (effects (font (size 1.016 1.016)) hide)
      )
      (property "Value" "PWR_DRV" (id 1) (at -1.27 -2.54 0)
        (effects (font (size 1.016 1.016)) hide)
      )
      (property "Footprint" "" (id 2) (at 0 0 0)
        (effects (font (size 1.524 1.524)))
      )
      (property "Datasheet" "" (id 3) (at 0 0 0)
        (effects (font (size 1.524 1.524)))
      )
      (symbol "PWR_DRV_0_0"
        (pin passive line (at -1.27 0 90) (length 0) hide
          (name "~" (effects (font (size 0.762 0.762))))
          (number "1" (effects (font (size 0.762 0.762))))
        )
        (pin power_out line (at 0 0 90) (length 0) hide
          (name "~" (effects (font (size 0.762 0.762))))
          (number "2" (effects (font (size 0.762 0.762))))
        )
      )
      (symbol "PWR_DRV_0_1"
        (polyline
          (pts
            (xy -2.54 1.27)
            (xy -1.27 1.27)
            (xy 0 0)
            (xy -1.27 -1.27)
            (xy -2.54 -1.27)
            (xy -1.27 0)
            (xy -2.54 1.27)
          )
          (stroke (width 0) (type default) (color 0 0 0 0))
          (fill (type background))
        )
      )
    )
    (symbol "kiwi-rescue:R" (pin_numbers hide) (pin_names (offset 0)) (in_bom yes) (on_board yes)
      (property "Reference" "R" (id 0) (at 2.032 0 90)
        (effects (font (size 1.016 1.016)))
      )
      (property "Value" "R" (id 1) (at 0.1778 0.0254 90)
        (effects (font (size 1.016 1.016)))
      )
      (property "Footprint" "" (id 2) (at -1.778 0 90)
        (effects (font (size 0.762 0.762)))
      )
      (property "Datasheet" "" (id 3) (at 0 0 0)
        (effects (font (size 0.762 0.762)))
      )
      (property "ki_fp_filters" "R? SM* R?-*" (id 4) (at 0 0 0)
        (effects (font (size 1.27 1.27)) hide)
      )
      (symbol "R_0_1"
        (rectangle (start -1.016 3.81) (end 1.016 -3.81)
          (stroke (width 0) (type default) (color 0 0 0 0))
          (fill (type none))
        )
      )
      (symbol "R_1_1"
        (pin passive line (at 0 6.35 270) (length 2.54)
          (name "~" (effects (font (size 1.524 1.524))))
          (number "1" (effects (font (size 1.524 1.524))))
        )
        (pin passive line (at 0 -6.35 90) (length 2.54)
          (name "~" (effects (font (size 1.524 1.524))))
          (number "2" (effects (font (size 1.524 1.524))))
        )
      )
    )
    (symbol "kiwi-rescue:TEST_POINT" (pin_numbers hide) (pin_names (offset 1.016) hide) (in_bom yes) (on_board yes)
      (property "Reference" "TP" (id 0) (at 0 3.81 0)
        (effects (font (size 1.524 1.524)))
      )
      (property "Value" "TEST_POINT" (id 1) (at 0 -5.08 0)
        (effects (font (size 1.524 1.524)) hide)
      )
      (property "Footprint" "" (id 2) (at 0 0 0)
        (effects (font (size 1.524 1.524)))
      )
      (property "Datasheet" "" (id 3) (at 0 0 0)
        (effects (font (size 1.524 1.524)))
      )
      (symbol "TEST_POINT_0_1"
        (circle (center 0 0) (radius 1.27)
          (stroke (width 0) (type default) (color 0 0 0 0))
          (fill (type none))
        )
      )
      (symbol "TEST_POINT_1_1"
        (pin passive line (at 0 -2.54 90) (length 1.27)
          (name "~" (effects (font (size 1.27 1.27))))
          (number "1" (effects (font (size 1.27 1.27))))
        )
      )
    )
    (symbol "kiwi-rescue:VREG_10PIN" (pin_names (offset 1.016)) (in_bom yes) (on_board yes)
      (property "Reference" "U" (id 0) (at 0 3.81 0)
        (effects (font (size 1.524 1.524)))
      )
      (property "Value" "VREG_10PIN" (id 1) (at 0 0 0)
        (effects (font (size 1.524 1.524)))
      )
      (property "Footprint" "" (id 2) (at -1.27 -8.89 0)
        (effects (font (size 1.524 1.524)))
      )
      (property "Datasheet" "" (id 3) (at -1.27 -8.89 0)
        (effects (font (size 1.524 1.524)))
      )
      (symbol "VREG_10PIN_0_1"
        (rectangle (start -22.86 10.16) (end 22.86 -10.16)
          (stroke (width 0.254) (type default) (color 0 0 0 0))
          (fill (type none))
        )
      )
      (symbol "VREG_10PIN_1_1"
        (pin input line (at -30.48 -7.62 0) (length 7.62)
          (name "VINC" (effects (font (size 1.27 1.27))))
          (number "1" (effects (font (size 1.27 1.27))))
        )
        (pin power_in line (at -30.48 2.54 0) (length 7.62)
          (name "VIND" (effects (font (size 1.27 1.27))))
          (number "10" (effects (font (size 1.27 1.27))))
        )
        (pin input line (at -30.48 -2.54 0) (length 7.62)
          (name "EN" (effects (font (size 1.27 1.27))))
          (number "2" (effects (font (size 1.27 1.27))))
        )
        (pin power_in line (at -5.08 -17.78 90) (length 7.62)
          (name "SGND" (effects (font (size 1.27 1.27))))
          (number "3" (effects (font (size 1.27 1.27))))
        )
        (pin passive line (at 30.48 -7.62 180) (length 7.62)
          (name "NC" (effects (font (size 1.27 1.27))))
          (number "4" (effects (font (size 1.27 1.27))))
        )
        (pin output line (at 30.48 -2.54 180) (length 7.62)
          (name "FB" (effects (font (size 1.27 1.27))))
          (number "5" (effects (font (size 1.27 1.27))))
        )
        (pin power_in line (at 5.08 -17.78 90) (length 7.62)
          (name "PGND" (effects (font (size 1.27 1.27))))
          (number "6" (effects (font (size 1.27 1.27))))
        )
        (pin power_out line (at 30.48 7.62 180) (length 7.62)
          (name "SW" (effects (font (size 1.27 1.27))))
          (number "7" (effects (font (size 1.27 1.27))))
        )
        (pin power_in line (at 30.48 2.54 180) (length 7.62)
          (name "SW" (effects (font (size 1.27 1.27))))
          (number "8" (effects (font (size 1.27 1.27))))
        )
        (pin power_in line (at -30.48 7.62 0) (length 7.62)
          (name "VIND" (effects (font (size 1.27 1.27))))
          (number "9" (effects (font (size 1.27 1.27))))
        )
        (pin input line (at 0 -17.78 90) (length 7.62)
          (name "~" (effects (font (size 1.27 1.27))))
          (number "PAD" (effects (font (size 1.27 1.27))))
        )
      )
    )
    (symbol "kiwi-rescue:VREG_5PIN_4" (pin_names (offset 1.016)) (in_bom yes) (on_board yes)
      (property "Reference" "U" (id 0) (at 0 12.7 0)
        (effects (font (size 1.524 1.524)))
      )
      (property "Value" "VREG_5PIN_4" (id 1) (at 0 0 0)
        (effects (font (size 1.524 1.524)))
      )
      (property "Footprint" "" (id 2) (at -1.27 -8.89 0)
        (effects (font (size 1.524 1.524)))
      )
      (property "Datasheet" "" (id 3) (at -1.27 -8.89 0)
        (effects (font (size 1.524 1.524)))
      )
      (symbol "VREG_5PIN_4_0_1"
        (rectangle (start -22.86 10.16) (end 22.86 -10.16)
          (stroke (width 0.254) (type default) (color 0 0 0 0))
          (fill (type none))
        )
      )
      (symbol "VREG_5PIN_4_1_1"
        (pin power_in line (at -30.48 0 0) (length 7.62)
          (name "VIN" (effects (font (size 1.27 1.27))))
          (number "1" (effects (font (size 1.27 1.27))))
        )
        (pin power_in line (at -2.54 -17.78 90) (length 7.62)
          (name "GND" (effects (font (size 1.27 1.27))))
          (number "2" (effects (font (size 1.27 1.27))))
        )
        (pin input line (at 7.62 -17.78 90) (length 7.62)
          (name "EN" (effects (font (size 1.27 1.27))))
          (number "3" (effects (font (size 1.27 1.27))))
        )
        (pin passive line (at -12.7 -17.78 90) (length 7.62)
          (name "NC" (effects (font (size 1.27 1.27))))
          (number "4" (effects (font (size 1.27 1.27))))
        )
        (pin power_out line (at 30.48 0 180) (length 7.62)
          (name "VOUT" (effects (font (size 1.27 1.27))))
          (number "5" (effects (font (size 1.27 1.27))))
        )
      )
    )
  )

  (junction (at 168.91 144.78) (diameter 0) (color 0 0 0 0)
    (uuid 011c0692-12b3-430f-bcf1-3104896f0ad1)
  )
  (junction (at 224.79 74.93) (diameter 0) (color 0 0 0 0)
    (uuid 01ea6198-aea7-4b95-8c78-3d18b72c029d)
  )
  (junction (at 234.95 144.78) (diameter 0) (color 0 0 0 0)
    (uuid 043bdd28-7496-463d-b9f6-acc1a00f10d0)
  )
  (junction (at 205.74 74.93) (diameter 0) (color 0 0 0 0)
    (uuid 05bade2c-696b-42c7-945d-d6749b628867)
  )
  (junction (at 185.42 106.68) (diameter 0) (color 0 0 0 0)
    (uuid 2563efd6-f9f4-4af2-8167-0ee369d73885)
  )
  (junction (at 185.42 91.44) (diameter 0) (color 0 0 0 0)
    (uuid 2a0845ef-783f-4f86-b457-fca97a17888b)
  )
  (junction (at 104.14 106.68) (diameter 0) (color 0 0 0 0)
    (uuid 2c975aef-38b0-4c0c-bd5d-91123a2d7e92)
  )
  (junction (at 68.58 90.17) (diameter 0) (color 0 0 0 0)
    (uuid 32c9b072-d989-4b13-9f6d-5b61c83722de)
  )
  (junction (at 114.3 106.68) (diameter 0) (color 0 0 0 0)
    (uuid 38fe6c33-a466-4208-8ee4-70a3ea39a810)
  )
  (junction (at 142.24 106.68) (diameter 0) (color 0 0 0 0)
    (uuid 3d044eb5-f8dc-47b5-b299-a342ea8056af)
  )
  (junction (at 58.42 74.93) (diameter 0) (color 0 0 0 0)
    (uuid 5134efc7-2ca6-44c2-abb9-b667b58b19e1)
  )
  (junction (at 232.41 144.78) (diameter 0) (color 0 0 0 0)
    (uuid 652fd9e4-7349-4c43-9e66-82fbb06cdadb)
  )
  (junction (at 68.58 74.93) (diameter 0) (color 0 0 0 0)
    (uuid 65973354-a219-4b36-beb6-db9125b3a3ff)
  )
  (junction (at 68.58 106.68) (diameter 0) (color 0 0 0 0)
    (uuid 7e060f44-b3e9-488b-be70-c8a81f4a575c)
  )
  (junction (at 147.32 74.93) (diameter 0) (color 0 0 0 0)
    (uuid 802e7b21-ffc9-4906-acaa-633d3b7406e5)
  )
  (junction (at 142.24 74.93) (diameter 0) (color 0 0 0 0)
    (uuid 92cb2963-b68d-433d-b5b2-062daa8b553a)
  )
  (junction (at 109.22 106.68) (diameter 0) (color 0 0 0 0)
    (uuid ac36ee77-0b9d-4990-bc60-15c53dc04227)
  )
  (junction (at 76.2 90.17) (diameter 0) (color 0 0 0 0)
    (uuid bc0a16a0-ba9f-46e7-b59d-f978c96b1d93)
  )
  (junction (at 76.2 74.93) (diameter 0) (color 0 0 0 0)
    (uuid c24b3961-cbef-4dfc-83eb-b70b111cc5f8)
  )
  (junction (at 185.42 74.93) (diameter 0) (color 0 0 0 0)
    (uuid e42bc3b0-a409-46c0-ac5d-9e3bfd967259)
  )
  (junction (at 195.58 74.93) (diameter 0) (color 0 0 0 0)
    (uuid efec92e5-4f31-42f4-99d3-143b391b4569)
  )

  (wire (pts (xy 58.42 106.68) (xy 68.58 106.68))
    (stroke (width 0) (type default) (color 0 0 0 0))
    (uuid 019a5d9a-4380-49bf-852c-8c72bc056f9c)
  )
  (wire (pts (xy 232.41 157.48) (xy 232.41 158.75))
    (stroke (width 0) (type default) (color 0 0 0 0))
    (uuid 03dbdb7e-c5ad-42b9-95bf-2a3854f61392)
  )
  (wire (pts (xy 205.74 74.93) (xy 215.9 74.93))
    (stroke (width 0) (type default) (color 0 0 0 0))
    (uuid 06f45244-0a6c-4ae3-97cd-260f6cdbd693)
  )
  (wire (pts (xy 224.79 74.93) (xy 224.79 73.66))
    (stroke (width 0) (type default) (color 0 0 0 0))
    (uuid 0da5f887-bfad-4301-a2eb-7f1dc8a9fc5d)
  )
  (wire (pts (xy 58.42 86.36) (xy 58.42 106.68))
    (stroke (width 0) (type default) (color 0 0 0 0))
    (uuid 11c41766-9118-439d-aeb2-9c6094616e00)
  )
  (wire (pts (xy 142.24 90.17) (xy 142.24 106.68))
    (stroke (width 0) (type default) (color 0 0 0 0))
    (uuid 11d56406-5f8b-4556-bbd5-2db6a4a72b58)
  )
  (wire (pts (xy 139.7 85.09) (xy 181.61 85.09))
    (stroke (width 0) (type default) (color 0 0 0 0))
    (uuid 18b76b18-b011-4c99-9ccc-104282ff4679)
  )
  (wire (pts (xy 142.24 80.01) (xy 142.24 74.93))
    (stroke (width 0) (type default) (color 0 0 0 0))
    (uuid 1a79dedb-4def-4fe8-9ea3-32bba6f02500)
  )
  (wire (pts (xy 109.22 100.33) (xy 109.22 106.68))
    (stroke (width 0) (type default) (color 0 0 0 0))
    (uuid 1fc6df0c-8085-4ba4-9523-7293ed3875af)
  )
  (wire (pts (xy 181.61 91.44) (xy 185.42 91.44))
    (stroke (width 0) (type default) (color 0 0 0 0))
    (uuid 25a40846-7db7-4587-83ad-f38ecd8105e0)
  )
  (wire (pts (xy 139.7 90.17) (xy 142.24 90.17))
    (stroke (width 0) (type default) (color 0 0 0 0))
    (uuid 2604effa-f897-4672-b958-64142fc3c2e0)
  )
  (wire (pts (xy 55.88 73.66) (xy 55.88 74.93))
    (stroke (width 0) (type default) (color 0 0 0 0))
    (uuid 2e118cc9-a046-48e4-9ab2-eb0759eaaa9a)
  )
  (wire (pts (xy 205.74 106.68) (xy 205.74 87.63))
    (stroke (width 0) (type default) (color 0 0 0 0))
    (uuid 2e529cc9-f500-409a-a4be-ed69f98e5e00)
  )
  (wire (pts (xy 104.14 106.68) (xy 104.14 100.33))
    (stroke (width 0) (type default) (color 0 0 0 0))
    (uuid 305ff569-ff7c-4305-a21d-e6e3ffd3512f)
  )
  (wire (pts (xy 168.91 157.48) (xy 168.91 158.75))
    (stroke (width 0) (type default) (color 0 0 0 0))
    (uuid 31ad7a9e-9072-418d-b19a-d8944aae4607)
  )
  (wire (pts (xy 229.87 74.93) (xy 229.87 73.66))
    (stroke (width 0) (type default) (color 0 0 0 0))
    (uuid 373abc16-b182-495e-8d4f-36806b5ff006)
  )
  (wire (pts (xy 104.14 106.68) (xy 109.22 106.68))
    (stroke (width 0) (type default) (color 0 0 0 0))
    (uuid 3ec39fcb-1468-4f62-9f94-f3ea70eb50d9)
  )
  (wire (pts (xy 68.58 74.93) (xy 68.58 76.2))
    (stroke (width 0) (type default) (color 0 0 0 0))
    (uuid 53093fa3-0acc-4054-a310-eb87473301be)
  )
  (wire (pts (xy 185.42 74.93) (xy 195.58 74.93))
    (stroke (width 0) (type default) (color 0 0 0 0))
    (uuid 5483d87c-ce32-48ed-9944-ff64331bd1c5)
  )
  (wire (pts (xy 68.58 90.17) (xy 76.2 90.17))
    (stroke (width 0) (type default) (color 0 0 0 0))
    (uuid 592d4307-4b82-42bf-bd1a-4c3adb8b4bc6)
  )
  (wire (pts (xy 205.74 74.93) (xy 205.74 77.47))
    (stroke (width 0) (type default) (color 0 0 0 0))
    (uuid 5932cab8-4fee-45f8-b04d-3875f9e267d0)
  )
  (wire (pts (xy 78.74 80.01) (xy 76.2 80.01))
    (stroke (width 0) (type default) (color 0 0 0 0))
    (uuid 5e9ac0f0-e63f-40fa-b2ad-00ea258db407)
  )
  (wire (pts (xy 76.2 74.93) (xy 78.74 74.93))
    (stroke (width 0) (type default) (color 0 0 0 0))
    (uuid 6179f98b-c34e-4f23-9f8b-6ea72a0115c9)
  )
  (wire (pts (xy 185.42 91.44) (xy 195.58 91.44))
    (stroke (width 0) (type default) (color 0 0 0 0))
    (uuid 659ccccb-515d-47b2-82dc-d4ed588a6d83)
  )
  (wire (pts (xy 78.74 85.09) (xy 76.2 85.09))
    (stroke (width 0) (type default) (color 0 0 0 0))
    (uuid 678710fe-23f9-483c-80e8-65ca3ab8237d)
  )
  (wire (pts (xy 232.41 144.78) (xy 232.41 147.32))
    (stroke (width 0) (type default) (color 0 0 0 0))
    (uuid 6a71b162-e1a6-4199-977f-0321a706c336)
  )
  (wire (pts (xy 114.3 106.68) (xy 142.24 106.68))
    (stroke (width 0) (type default) (color 0 0 0 0))
    (uuid 6abc4e30-cb54-4e75-81a7-6530c3ff448e)
  )
  (wire (pts (xy 68.58 74.93) (xy 76.2 74.93))
    (stroke (width 0) (type default) (color 0 0 0 0))
    (uuid 6dfe36f6-7d2e-4caf-937a-5af4a92e2c1f)
  )
  (wire (pts (xy 209.55 162.56) (xy 209.55 163.83))
    (stroke (width 0) (type default) (color 0 0 0 0))
    (uuid 73b81ad2-fc99-4399-b7ab-5788629ad442)
  )
  (wire (pts (xy 142.24 106.68) (xy 185.42 106.68))
    (stroke (width 0) (type default) (color 0 0 0 0))
    (uuid 76779822-a9fc-4cf0-a1c5-0b3935c9aa97)
  )
  (wire (pts (xy 76.2 90.17) (xy 78.74 90.17))
    (stroke (width 0) (type default) (color 0 0 0 0))
    (uuid 79d3a55c-68bb-47c4-b888-5b9026a326ce)
  )
  (wire (pts (xy 147.32 74.93) (xy 160.02 74.93))
    (stroke (width 0) (type default) (color 0 0 0 0))
    (uuid 7d22b4f2-3445-4a68-823d-16ff134b2e99)
  )
  (wire (pts (xy 185.42 106.68) (xy 185.42 105.41))
    (stroke (width 0) (type default) (color 0 0 0 0))
    (uuid 7f0e4c49-0805-4975-86e9-6acd3272d113)
  )
  (wire (pts (xy 76.2 80.01) (xy 76.2 74.93))
    (stroke (width 0) (type default) (color 0 0 0 0))
    (uuid 8339b652-de0b-4330-9264-8a39f01330cc)
  )
  (wire (pts (xy 195.58 74.93) (xy 195.58 77.47))
    (stroke (width 0) (type default) (color 0 0 0 0))
    (uuid 8867a8ab-94f1-4351-9df8-1bf19d9802b8)
  )
  (wire (pts (xy 232.41 144.78) (xy 234.95 144.78))
    (stroke (width 0) (type default) (color 0 0 0 0))
    (uuid 8ef82c55-bc01-4f3b-a36f-375ee67fbbde)
  )
  (wire (pts (xy 168.91 144.78) (xy 171.45 144.78))
    (stroke (width 0) (type default) (color 0 0 0 0))
    (uuid 9464f13a-c4cb-4035-a54c-baf919a805b6)
  )
  (wire (pts (xy 58.42 76.2) (xy 58.42 74.93))
    (stroke (width 0) (type default) (color 0 0 0 0))
    (uuid 96793a2a-ce99-4db0-9f77-4cecc4b0d6fe)
  )
  (wire (pts (xy 234.95 144.78) (xy 234.95 143.51))
    (stroke (width 0) (type default) (color 0 0 0 0))
    (uuid 970836f5-e6cd-4d9c-bcb7-6adf406fdf92)
  )
  (wire (pts (xy 185.42 74.93) (xy 185.42 77.47))
    (stroke (width 0) (type default) (color 0 0 0 0))
    (uuid 9ae11817-e2fd-43c1-967d-cd1db6a65dad)
  )
  (wire (pts (xy 234.95 144.78) (xy 240.03 144.78))
    (stroke (width 0) (type default) (color 0 0 0 0))
    (uuid 9ae1f440-e4cb-4f35-8af5-308ab834d880)
  )
  (wire (pts (xy 109.22 106.68) (xy 114.3 106.68))
    (stroke (width 0) (type default) (color 0 0 0 0))
    (uuid 9ed62be1-55ec-4f96-8cf8-1effd9909112)
  )
  (wire (pts (xy 195.58 91.44) (xy 195.58 87.63))
    (stroke (width 0) (type default) (color 0 0 0 0))
    (uuid aaaae7db-8a40-48c6-803a-37f846099b00)
  )
  (wire (pts (xy 224.79 74.93) (xy 229.87 74.93))
    (stroke (width 0) (type default) (color 0 0 0 0))
    (uuid ac7dddf5-9dca-439d-ba53-f159543f7dbb)
  )
  (wire (pts (xy 217.17 74.93) (xy 224.79 74.93))
    (stroke (width 0) (type default) (color 0 0 0 0))
    (uuid b1116130-ed60-4d4d-9204-cf9f6f67e354)
  )
  (wire (pts (xy 175.26 74.93) (xy 185.42 74.93))
    (stroke (width 0) (type default) (color 0 0 0 0))
    (uuid b31200d8-21c3-44d5-91ce-49765c423c51)
  )
  (wire (pts (xy 68.58 90.17) (xy 68.58 91.44))
    (stroke (width 0) (type default) (color 0 0 0 0))
    (uuid bc142c46-7d36-485a-80b7-7db29315c960)
  )
  (wire (pts (xy 68.58 88.9) (xy 68.58 90.17))
    (stroke (width 0) (type default) (color 0 0 0 0))
    (uuid bf75adf7-e85f-48bf-8449-99d782e82cdf)
  )
  (wire (pts (xy 114.3 106.68) (xy 114.3 100.33))
    (stroke (width 0) (type default) (color 0 0 0 0))
    (uuid c196bf67-5353-4ea1-a350-ed24aa9241a5)
  )
  (wire (pts (xy 199.39 162.56) (xy 199.39 165.1))
    (stroke (width 0) (type default) (color 0 0 0 0))
    (uuid c1ca6640-3859-4d0f-8acf-7494ddbee905)
  )
  (wire (pts (xy 68.58 106.68) (xy 104.14 106.68))
    (stroke (width 0) (type default) (color 0 0 0 0))
    (uuid c294e657-f88e-4e1d-880e-fd094bf06bd2)
  )
  (wire (pts (xy 109.22 106.68) (xy 109.22 109.22))
    (stroke (width 0) (type default) (color 0 0 0 0))
    (uuid c32ed9fc-633a-4a3a-a636-a81e6d4ea02f)
  )
  (wire (pts (xy 168.91 144.78) (xy 168.91 147.32))
    (stroke (width 0) (type default) (color 0 0 0 0))
    (uuid c4fbcf5f-c5f4-4f90-9d15-5722c88f1411)
  )
  (wire (pts (xy 185.42 91.44) (xy 185.42 92.71))
    (stroke (width 0) (type default) (color 0 0 0 0))
    (uuid c78288dc-6adf-4300-b95d-6b9ec1cd407f)
  )
  (wire (pts (xy 68.58 101.6) (xy 68.58 106.68))
    (stroke (width 0) (type default) (color 0 0 0 0))
    (uuid cf68684a-9a17-43f9-8ac7-c4b4c756c16a)
  )
  (wire (pts (xy 240.03 144.78) (xy 240.03 143.51))
    (stroke (width 0) (type default) (color 0 0 0 0))
    (uuid d707bd31-c835-461f-bd2a-90625cd7da64)
  )
  (wire (pts (xy 168.91 143.51) (xy 168.91 144.78))
    (stroke (width 0) (type default) (color 0 0 0 0))
    (uuid d79521d1-5f88-4b54-a99b-8d2662d5737e)
  )
  (wire (pts (xy 147.32 59.69) (xy 147.32 58.42))
    (stroke (width 0) (type default) (color 0 0 0 0))
    (uuid daefbfe9-d2b6-4d02-8e12-d7f1b792e88f)
  )
  (wire (pts (xy 142.24 74.93) (xy 147.32 74.93))
    (stroke (width 0) (type default) (color 0 0 0 0))
    (uuid dccf3545-6151-4fca-97f7-f1096522aa6b)
  )
  (wire (pts (xy 55.88 74.93) (xy 58.42 74.93))
    (stroke (width 0) (type default) (color 0 0 0 0))
    (uuid dce28cfc-c169-42d1-8556-fd8481556ae8)
  )
  (wire (pts (xy 147.32 69.85) (xy 147.32 74.93))
    (stroke (width 0) (type default) (color 0 0 0 0))
    (uuid de133919-8fdd-4bee-99b5-d778fa395f35)
  )
  (wire (pts (xy 139.7 74.93) (xy 142.24 74.93))
    (stroke (width 0) (type default) (color 0 0 0 0))
    (uuid e52db47b-0b7b-402d-a2d8-54fce0052120)
  )
  (wire (pts (xy 58.42 74.93) (xy 68.58 74.93))
    (stroke (width 0) (type default) (color 0 0 0 0))
    (uuid eba2a020-ed60-4a35-951f-7d2ec1c9a3a8)
  )
  (wire (pts (xy 185.42 106.68) (xy 205.74 106.68))
    (stroke (width 0) (type default) (color 0 0 0 0))
    (uuid eea8f559-77d7-456c-9007-5bd9e00300d6)
  )
  (wire (pts (xy 76.2 85.09) (xy 76.2 90.17))
    (stroke (width 0) (type default) (color 0 0 0 0))
    (uuid f38419c0-38f1-43dc-94d7-5d42fe5186c0)
  )
  (wire (pts (xy 181.61 85.09) (xy 181.61 91.44))
    (stroke (width 0) (type default) (color 0 0 0 0))
    (uuid f461e31f-e345-4042-afd7-b060118ddb8f)
  )
  (wire (pts (xy 185.42 90.17) (xy 185.42 91.44))
    (stroke (width 0) (type default) (color 0 0 0 0))
    (uuid f791cc6d-f473-4b58-9a03-fd151e3b39c9)
  )
  (wire (pts (xy 195.58 74.93) (xy 205.74 74.93))
    (stroke (width 0) (type default) (color 0 0 0 0))
    (uuid f7d0c3e5-f1d9-4af0-a86c-1cd71b09d023)
  )
  (wire (pts (xy 139.7 80.01) (xy 142.24 80.01))
    (stroke (width 0) (type default) (color 0 0 0 0))
    (uuid fa29b8ce-2bef-4d10-bd20-2db8e0596c75)
  )
  (wire (pts (xy 189.23 162.56) (xy 189.23 163.83))
    (stroke (width 0) (type default) (color 0 0 0 0))
    (uuid fd643b4e-ae53-4110-8f71-6fb00f91c462)
  )

  (text "Fsw = 3 MHz" (at 120.65 96.52 0)
    (effects (font (size 1.524 1.524)) (justify left bottom))
    (uuid 409b5bf8-0b60-46f1-b7d6-9eedba3f583e)
  )

  (label "FB" (at 151.13 85.09 0)
    (effects (font (size 1.524 1.524)) (justify left bottom))
    (uuid 158b561b-cc7d-47c7-a2e1-39b9bdc2070f)
  )
  (label "SW1" (at 151.13 74.93 0)
    (effects (font (size 1.524 1.524)) (justify left bottom))
    (uuid 47caa29f-c512-4a64-b638-edc4848caf2b)
  )
  (label "SW2" (at 218.44 74.93 0)
    (effects (font (size 1.524 1.524)) (justify left bottom))
    (uuid 4f8dea34-8b6e-4a17-8e93-80c757d79de3)
  )
  (label "SW2" (at 177.8 74.93 0)
    (effects (font (size 1.524 1.524)) (justify left bottom))
    (uuid 7f002e46-af46-4a5b-a06c-c0f4eafea09c)
  )
  (label "EN" (at 71.12 90.17 0)
    (effects (font (size 1.524 1.524)) (justify left bottom))
    (uuid ed830fc9-3067-4ccc-99c7-c767e99f8c38)
  )

  (symbol (lib_id "kiwi-rescue:GND") (at 109.22 109.22 0) (unit 1)
    (in_bom yes) (on_board yes)
    (uuid 00000000-0000-0000-0000-000050832a56)
    (property "Reference" "#PWR0114" (id 0) (at 109.22 109.22 0)
      (effects (font (size 0.762 0.762)) hide)
    )
    (property "Value" "GND" (id 1) (at 109.22 110.998 0)
      (effects (font (size 0.762 0.762)) hide)
    )
    (property "Footprint" "" (id 2) (at 109.22 109.22 0)
      (effects (font (size 1.524 1.524)) hide)
    )
    (property "Datasheet" "" (id 3) (at 109.22 109.22 0)
      (effects (font (size 1.524 1.524)) hide)
    )
    (pin "1" (uuid 483b7d93-c8b3-41f9-ac1b-22c131df2157))
  )

  (symbol (lib_id "kiwi-rescue:VREG_10PIN") (at 109.22 82.55 0) (unit 1)
    (in_bom yes) (on_board yes)
    (uuid 00000000-0000-0000-0000-000052c1ee3d)
    (property "Reference" "" (id 0) (at 109.22 78.74 0)
      (effects (font (size 1.524 1.524)))
    )
    (property "Value" "LMR10530Y 1.0V 3A" (id 1) (at 109.22 82.55 0)
      (effects (font (size 1.524 1.524)))
    )
    (property "Footprint" "kiwi-WSON10" (id 2) (at 107.95 91.44 0)
      (effects (font (size 1.524 1.524)) hide)
    )
    (property "Datasheet" "~" (id 3) (at 107.95 91.44 0)
      (effects (font (size 1.524 1.524)))
    )
    (pin "1" (uuid 49c1abeb-54a8-4ca4-b390-6cd12d0c905d))
    (pin "10" (uuid a1d5b6d9-0310-47d7-a607-ac0a556f7d20))
    (pin "2" (uuid 1645512d-f7dd-489e-92bc-efcd31b620a5))
    (pin "3" (uuid 4586834a-f35b-4b12-939d-61a90dd36b1b))
    (pin "4" (uuid 3ee22363-8439-4d3b-aef3-36a230acced3))
    (pin "5" (uuid ee5f2c72-8c9d-4256-b830-79a0775a7820))
    (pin "6" (uuid 4815a76b-750a-4558-abe3-b57f3d33573d))
    (pin "7" (uuid d5887499-bca2-4540-ba9d-fcae3791bd70))
    (pin "8" (uuid 22669a20-64ba-4e2e-be61-0c4fb18feac0))
    (pin "9" (uuid 02379b52-65bb-42f2-9554-7b2ec6d32765))
    (pin "PAD" (uuid 6ccd0d09-c990-4e4d-a451-fef9aa62b6d7))
  )

  (symbol (lib_id "kiwi-rescue:GND") (at 147.32 58.42 180) (unit 1)
    (in_bom yes) (on_board yes)
    (uuid 00000000-0000-0000-0000-000052c1f4ea)
    (property "Reference" "#PWR0115" (id 0) (at 147.32 58.42 0)
      (effects (font (size 0.762 0.762)) hide)
    )
    (property "Value" "GND" (id 1) (at 147.32 56.642 0)
      (effects (font (size 0.762 0.762)) hide)
    )
    (property "Footprint" "" (id 2) (at 147.32 58.42 0)
      (effects (font (size 1.524 1.524)) hide)
    )
    (property "Datasheet" "" (id 3) (at 147.32 58.42 0)
      (effects (font (size 1.524 1.524)) hide)
    )
    (pin "1" (uuid fd951b04-f754-43ab-8148-07537e105907))
  )

  (symbol (lib_id "kiwi-rescue:C") (at 58.42 81.28 0) (unit 1)
    (in_bom yes) (on_board yes)
    (uuid 00000000-0000-0000-0000-000052c1f7b0)
    (property "Reference" "" (id 0) (at 58.42 78.74 0)
      (effects (font (size 1.016 1.016)) (justify left))
    )
    (property "Value" "22u" (id 1) (at 58.5724 83.439 0)
      (effects (font (size 1.016 1.016)) (justify left))
    )
    (property "Footprint" "kiwi-SM0805" (id 2) (at 59.3852 85.09 0)
      (effects (font (size 0.762 0.762)) hide)
    )
    (property "Datasheet" "~" (id 3) (at 58.42 81.28 0)
      (effects (font (size 1.524 1.524)))
    )
    (pin "1" (uuid bf2c42e4-61f9-41aa-af31-ba03ad15375b))
    (pin "2" (uuid bea9afdb-835b-46e8-87c1-8e3a3c5367a6))
  )

  (symbol (lib_id "kiwi-rescue:COIL") (at 167.64 74.93 0) (unit 1)
    (in_bom yes) (on_board yes)
    (uuid 00000000-0000-0000-0000-000052c1f7bf)
    (property "Reference" "" (id 0) (at 167.64 72.39 0)
      (effects (font (size 1.27 1.27)) (justify bottom))
    )
    (property "Value" "1uH 3.7A" (id 1) (at 167.64 77.47 0)
      (effects (font (size 1.27 1.27)) (justify bottom))
    )
    (property "Footprint" "kiwi-INDUCTOR_4x4" (id 2) (at 171.45 72.39 90)
      (effects (font (size 1.27 1.27)) hide)
    )
    (property "Datasheet" "~" (id 3) (at 175.26 72.39 90)
      (effects (font (size 1.524 1.524)) hide)
    )
    (pin "1" (uuid 0feaa1ee-da28-4991-a1a6-f3957bda5962))
    (pin "2" (uuid 45c81112-34df-4e6e-84de-ee795d66bf1a))
  )

  (symbol (lib_id "kiwi-rescue:DIODE_SCHOTTKY") (at 147.32 64.77 270) (unit 1)
    (in_bom yes) (on_board yes)
    (uuid 00000000-0000-0000-0000-000052c1f7ce)
    (property "Reference" "" (id 0) (at 144.78 64.77 0))
    (property "Value" "SR 5A 40V" (id 1) (at 149.86 64.77 0))
    (property "Footprint" "kiwi-DO214_AA" (id 2) (at 147.32 64.77 0)
      (effects (font (size 1.27 1.27)) hide)
    )
    (property "Datasheet" "~" (id 3) (at 147.32 64.77 0)
      (effects (font (size 1.27 1.27)) hide)
    )
    (pin "1" (uuid 3a6a9e05-6976-4d2f-8ccf-dd10fd59b47a))
    (pin "2" (uuid e0e9abcb-10ef-4c92-89b4-787898669283))
  )

  (symbol (lib_id "kiwi-rescue:R") (at 68.58 82.55 0) (unit 1)
    (in_bom yes) (on_board yes)
    (uuid 00000000-0000-0000-0000-000052c1f7dd)
    (property "Reference" "" (id 0) (at 70.612 82.55 90)
      (effects (font (size 1.016 1.016)))
    )
    (property "Value" "10R" (id 1) (at 68.7578 82.5246 90)
      (effects (font (size 1.016 1.016)))
    )
    (property "Footprint" "kiwi-SM0402" (id 2) (at 66.802 82.55 90)
      (effects (font (size 0.762 0.762)) hide)
    )
    (property "Datasheet" "~" (id 3) (at 68.58 82.55 0)
      (effects (font (size 0.762 0.762)))
    )
    (pin "1" (uuid 562ca306-bbb8-4e16-b5c1-549b80f57b0e))
    (pin "2" (uuid 576e15c8-e4e9-4114-828b-e91069b39b1e))
  )

  (symbol (lib_id "kiwi-rescue:R") (at 185.42 83.82 0) (unit 1)
    (in_bom yes) (on_board yes)
    (uuid 00000000-0000-0000-0000-000052c200d6)
    (property "Reference" "" (id 0) (at 187.452 83.82 90)
      (effects (font (size 1.016 1.016)))
    )
    (property "Value" "6K65" (id 1) (at 185.5978 83.7946 90)
      (effects (font (size 1.016 1.016)))
    )
    (property "Footprint" "kiwi-SM0402" (id 2) (at 183.642 83.82 90)
      (effects (font (size 0.762 0.762)) hide)
    )
    (property "Datasheet" "~" (id 3) (at 185.42 83.82 0)
      (effects (font (size 0.762 0.762)))
    )
    (pin "1" (uuid 9c550b0e-175a-4ee5-b41f-456695677c53))
    (pin "2" (uuid 7643dddf-aa31-4f95-bed7-8d548fc08743))
  )

  (symbol (lib_id "kiwi-rescue:5V") (at 55.88 73.66 0) (unit 1)
    (in_bom yes) (on_board yes)
    (uuid 00000000-0000-0000-0000-000052c20291)
    (property "Reference" "#PWR0116" (id 0) (at 55.88 71.374 0)
      (effects (font (size 0.508 0.508)) hide)
    )
    (property "Value" "5V" (id 1) (at 55.88 71.374 0)
      (effects (font (size 0.762 0.762)))
    )
    (property "Footprint" "~" (id 2) (at 55.88 73.66 0)
      (effects (font (size 1.524 1.524)))
    )
    (property "Datasheet" "~" (id 3) (at 55.88 73.66 0)
      (effects (font (size 1.524 1.524)))
    )
    (pin "1" (uuid 265d88ba-2cbb-4309-9f17-ec48e776de81))
  )

  (symbol (lib_id "kiwi-rescue:C") (at 205.74 82.55 0) (unit 1)
    (in_bom yes) (on_board yes)
    (uuid 00000000-0000-0000-0000-000052c20542)
    (property "Reference" "" (id 0) (at 205.74 80.01 0)
      (effects (font (size 1.016 1.016)) (justify left))
    )
    (property "Value" "100u" (id 1) (at 205.8924 84.709 0)
      (effects (font (size 1.016 1.016)) (justify left))
    )
    (property "Footprint" "kiwi-SM1206" (id 2) (at 206.7052 86.36 0)
      (effects (font (size 0.762 0.762)) hide)
    )
    (property "Datasheet" "~" (id 3) (at 205.74 82.55 0)
      (effects (font (size 1.524 1.524)))
    )
    (pin "1" (uuid dde97861-a75d-4a75-bbcd-d3d64d4c4be5))
    (pin "2" (uuid f4596350-bc2a-45e9-929f-87b917ee2e96))
  )

  (symbol (lib_id "kiwi-rescue:R") (at 185.42 99.06 0) (unit 1)
    (in_bom yes) (on_board yes)
    (uuid 00000000-0000-0000-0000-000052c20548)
    (property "Reference" "" (id 0) (at 187.452 99.06 90)
      (effects (font (size 1.016 1.016)))
    )
    (property "Value" "10K" (id 1) (at 185.5978 99.0346 90)
      (effects (font (size 1.016 1.016)))
    )
    (property "Footprint" "kiwi-SM0402" (id 2) (at 183.642 99.06 90)
      (effects (font (size 0.762 0.762)) hide)
    )
    (property "Datasheet" "~" (id 3) (at 185.42 99.06 0)
      (effects (font (size 0.762 0.762)))
    )
    (pin "1" (uuid 51e655e4-6254-4619-aa6a-aa867e08effb))
    (pin "2" (uuid 924935fc-3809-414e-8eeb-844f8c8e7244))
  )

  (symbol (lib_id "kiwi-rescue:C") (at 68.58 96.52 0) (unit 1)
    (in_bom yes) (on_board yes)
    (uuid 00000000-0000-0000-0000-000052c212d3)
    (property "Reference" "" (id 0) (at 68.58 93.98 0)
      (effects (font (size 1.016 1.016)) (justify left))
    )
    (property "Value" "100n" (id 1) (at 68.7324 98.679 0)
      (effects (font (size 1.016 1.016)) (justify left))
    )
    (property "Footprint" "kiwi-SM0402" (id 2) (at 69.5452 100.33 0)
      (effects (font (size 0.762 0.762)) hide)
    )
    (property "Datasheet" "~" (id 3) (at 68.58 96.52 0)
      (effects (font (size 1.524 1.524)))
    )
    (pin "1" (uuid 566743ce-de81-4b98-b815-992c485dcd7f))
    (pin "2" (uuid 45b7efe1-f1b2-4344-8422-277db267bc13))
  )

  (symbol (lib_id "kiwi-rescue:1.0") (at 224.79 73.66 0) (unit 1)
    (in_bom yes) (on_board yes)
    (uuid 00000000-0000-0000-0000-000054e552b4)
    (property "Reference" "" (id 0) (at 224.79 74.676 0)
      (effects (font (size 0.762 0.762)) hide)
    )
    (property "Value" "1.0" (id 1) (at 224.79 70.866 0)
      (effects (font (size 0.762 0.762)))
    )
    (property "Footprint" "~" (id 2) (at 224.79 73.66 0)
      (effects (font (size 1.524 1.524)))
    )
    (property "Datasheet" "~" (id 3) (at 224.79 73.66 0)
      (effects (font (size 1.524 1.524)))
    )
    (pin "1" (uuid c10bc86d-7407-4e17-a786-37b9d7b9d20f))
  )

  (symbol (lib_id "kiwi-rescue:5V") (at 168.91 143.51 0) (unit 1)
    (in_bom yes) (on_board yes)
    (uuid 00000000-0000-0000-0000-000054e56abd)
    (property "Reference" "#PWR0117" (id 0) (at 168.91 141.224 0)
      (effects (font (size 0.508 0.508)) hide)
    )
    (property "Value" "5V" (id 1) (at 168.91 141.224 0)
      (effects (font (size 0.762 0.762)))
    )
    (property "Footprint" "~" (id 2) (at 168.91 143.51 0)
      (effects (font (size 1.524 1.524)))
    )
    (property "Datasheet" "~" (id 3) (at 168.91 143.51 0)
      (effects (font (size 1.524 1.524)))
    )
    (pin "1" (uuid 66877c17-deac-484b-afc5-3f6764795ef3))
  )

  (symbol (lib_id "kiwi-rescue:GND") (at 199.39 165.1 0) (unit 1)
    (in_bom yes) (on_board yes)
    (uuid 00000000-0000-0000-0000-000054e56acd)
    (property "Reference" "#PWR0118" (id 0) (at 199.39 165.1 0)
      (effects (font (size 0.762 0.762)) hide)
    )
    (property "Value" "GND" (id 1) (at 199.39 166.878 0)
      (effects (font (size 0.762 0.762)) hide)
    )
    (property "Footprint" "~" (id 2) (at 199.39 165.1 0)
      (effects (font (size 1.524 1.524)))
    )
    (property "Datasheet" "~" (id 3) (at 199.39 165.1 0)
      (effects (font (size 1.524 1.524)))
    )
    (pin "1" (uuid d9a88fc6-39a7-402a-9094-d855379de003))
  )

  (symbol (lib_id "kiwi-rescue:1.8") (at 234.95 143.51 0) (unit 1)
    (in_bom yes) (on_board yes)
    (uuid 00000000-0000-0000-0000-000054e56ae2)
    (property "Reference" "#PWR0119" (id 0) (at 234.95 144.526 0)
      (effects (font (size 0.762 0.762)) hide)
    )
    (property "Value" "1.8" (id 1) (at 234.95 140.716 0)
      (effects (font (size 0.762 0.762)))
    )
    (property "Footprint" "~" (id 2) (at 234.95 143.51 0)
      (effects (font (size 1.524 1.524)))
    )
    (property "Datasheet" "~" (id 3) (at 234.95 143.51 0)
      (effects (font (size 1.524 1.524)))
    )
    (pin "1" (uuid ba635f7c-8f7a-4ee0-ae4e-46ac9b1f7240))
  )

  (symbol (lib_id "kiwi-rescue:PWR_DRV") (at 217.17 74.93 0) (unit 1)
    (in_bom yes) (on_board yes)
    (uuid 00000000-0000-0000-0000-000054e9a12c)
    (property "Reference" "" (id 0) (at 215.9 72.39 0)
      (effects (font (size 1.016 1.016)) hide)
    )
    (property "Value" "PWR_DRV" (id 1) (at 215.9 77.47 0)
      (effects (font (size 1.016 1.016)) hide)
    )
    (property "Footprint" "~" (id 2) (at 217.17 74.93 0)
      (effects (font (size 1.524 1.524)))
    )
    (property "Datasheet" "~" (id 3) (at 217.17 74.93 0)
      (effects (font (size 1.524 1.524)))
    )
    (pin "1" (uuid 85b89034-d3c5-4e74-a78c-12168084842b))
    (pin "2" (uuid 5ba3a380-1f6a-44b9-9395-620f617aadef))
  )

  (symbol (lib_id "kiwi-rescue:C") (at 168.91 152.4 0) (unit 1)
    (in_bom yes) (on_board yes)
    (uuid 00000000-0000-0000-0000-000054f3ef39)
    (property "Reference" "" (id 0) (at 168.91 149.86 0)
      (effects (font (size 1.016 1.016)) (justify left))
    )
    (property "Value" "1u" (id 1) (at 169.0624 154.559 0)
      (effects (font (size 1.016 1.016)) (justify left))
    )
    (property "Footprint" "kiwi-SM0402" (id 2) (at 169.8752 156.21 0)
      (effects (font (size 0.762 0.762)) hide)
    )
    (property "Datasheet" "~" (id 3) (at 168.91 152.4 0)
      (effects (font (size 1.524 1.524)))
    )
    (pin "1" (uuid d09b1f6e-9507-4f0f-afe3-fa788acdf364))
    (pin "2" (uuid 99e3120c-92fb-413c-be7c-50b4b3d9bed9))
  )

  (symbol (lib_id "kiwi-rescue:C") (at 232.41 152.4 0) (unit 1)
    (in_bom yes) (on_board yes)
    (uuid 00000000-0000-0000-0000-000054f3ef49)
    (property "Reference" "" (id 0) (at 232.41 149.86 0)
      (effects (font (size 1.016 1.016)) (justify left))
    )
    (property "Value" "4.7u" (id 1) (at 232.5624 154.559 0)
      (effects (font (size 1.016 1.016)) (justify left))
    )
    (property "Footprint" "kiwi-SM0402" (id 2) (at 233.3752 156.21 0)
      (effects (font (size 0.762 0.762)) hide)
    )
    (property "Datasheet" "~" (id 3) (at 232.41 152.4 0)
      (effects (font (size 1.524 1.524)))
    )
    (pin "1" (uuid 3a1cc4ad-d66e-4f3e-a81c-dcf8f8a1bec3))
    (pin "2" (uuid f4982a38-abfb-44ad-b3de-e90445ff6c9e))
  )

  (symbol (lib_id "kiwi-rescue:GND") (at 168.91 158.75 0) (unit 1)
    (in_bom yes) (on_board yes)
    (uuid 00000000-0000-0000-0000-000054f3efd6)
    (property "Reference" "#PWR0122" (id 0) (at 168.91 158.75 0)
      (effects (font (size 0.762 0.762)) hide)
    )
    (property "Value" "GND" (id 1) (at 168.91 160.528 0)
      (effects (font (size 0.762 0.762)) hide)
    )
    (property "Footprint" "~" (id 2) (at 168.91 158.75 0)
      (effects (font (size 1.524 1.524)))
    )
    (property "Datasheet" "~" (id 3) (at 168.91 158.75 0)
      (effects (font (size 1.524 1.524)))
    )
    (pin "1" (uuid 5a661061-ca0d-4d16-8db0-0db62811096d))
  )

  (symbol (lib_id "kiwi-rescue:GND") (at 232.41 158.75 0) (unit 1)
    (in_bom yes) (on_board yes)
    (uuid 00000000-0000-0000-0000-000054f3f01f)
    (property "Reference" "#PWR0123" (id 0) (at 232.41 158.75 0)
      (effects (font (size 0.762 0.762)) hide)
    )
    (property "Value" "GND" (id 1) (at 232.41 160.528 0)
      (effects (font (size 0.762 0.762)) hide)
    )
    (property "Footprint" "~" (id 2) (at 232.41 158.75 0)
      (effects (font (size 1.524 1.524)))
    )
    (property "Datasheet" "~" (id 3) (at 232.41 158.75 0)
      (effects (font (size 1.524 1.524)))
    )
    (pin "1" (uuid 36a2d465-a5f6-4db2-b24f-e30f4bb2112a))
  )

  (symbol (lib_id "kiwi-rescue:5V") (at 209.55 163.83 180) (unit 1)
    (in_bom yes) (on_board yes)
    (uuid 00000000-0000-0000-0000-000055274ae8)
    (property "Reference" "#PWR0124" (id 0) (at 209.55 166.116 0)
      (effects (font (size 0.508 0.508)) hide)
    )
    (property "Value" "5V" (id 1) (at 209.55 166.116 0)
      (effects (font (size 0.762 0.762)))
    )
    (property "Footprint" "~" (id 2) (at 209.55 163.83 0)
      (effects (font (size 1.524 1.524)))
    )
    (property "Datasheet" "~" (id 3) (at 209.55 163.83 0)
      (effects (font (size 1.524 1.524)))
    )
    (pin "1" (uuid 5ad53840-3457-4c68-92e3-0f7704275575))
  )

  (symbol (lib_id "kiwi-rescue:VREG_5PIN_4") (at 201.93 144.78 0) (unit 1)
    (in_bom yes) (on_board yes)
    (uuid 00000000-0000-0000-0000-0000552ec7c4)
    (property "Reference" "" (id 0) (at 201.93 132.08 0)
      (effects (font (size 1.524 1.524)))
    )
    (property "Value" "LP5907 1.8V 250mA" (id 1) (at 201.93 144.78 0)
      (effects (font (size 1.524 1.524)))
    )
    (property "Footprint" "kiwi-SOT23_5" (id 2) (at 200.66 153.67 0)
      (effects (font (size 1.524 1.524)) hide)
    )
    (property "Datasheet" "~" (id 3) (at 200.66 153.67 0)
      (effects (font (size 1.524 1.524)))
    )
    (pin "1" (uuid 30775c5a-beb5-4bd9-bc6b-286e71532b00))
    (pin "2" (uuid 6fb136f0-1fd9-4410-949b-97125fb87c98))
    (pin "3" (uuid e93664b8-ec99-412f-8977-1d5fd5710798))
    (pin "4" (uuid f034be6c-1995-44ea-8f4c-6eefc6387818))
    (pin "5" (uuid 849a09fe-52b8-4342-850c-cb995ed02934))
  )

  (symbol (lib_id "kiwi-rescue:1.8") (at 189.23 163.83 180) (unit 1)
    (in_bom yes) (on_board yes)
    (uuid 00000000-0000-0000-0000-0000552ee5d9)
    (property "Reference" "#PWR0125" (id 0) (at 189.23 162.814 0)
      (effects (font (size 0.762 0.762)) hide)
    )
    (property "Value" "1.8" (id 1) (at 189.23 166.624 0)
      (effects (font (size 0.762 0.762)))
    )
    (property "Footprint" "~" (id 2) (at 189.23 163.83 0)
      (effects (font (size 1.524 1.524)))
    )
    (property "Datasheet" "~" (id 3) (at 189.23 163.83 0)
      (effects (font (size 1.524 1.524)))
    )
    (pin "1" (uuid 441ec41e-40b0-4f4a-9115-a425b0fb00e2))
  )

  (symbol (lib_id "kiwi-rescue:C") (at 195.58 82.55 0) (unit 1)
    (in_bom yes) (on_board yes)
    (uuid 00000000-0000-0000-0000-00005530667d)
    (property "Reference" "" (id 0) (at 195.58 80.01 0)
      (effects (font (size 1.016 1.016)) (justify left))
    )
    (property "Value" "100n" (id 1) (at 195.7324 84.709 0)
      (effects (font (size 1.016 1.016)) (justify left))
    )
    (property "Footprint" "kiwi-SM0402" (id 2) (at 196.5452 86.36 0)
      (effects (font (size 0.762 0.762)) hide)
    )
    (property "Datasheet" "~" (id 3) (at 195.58 82.55 0)
      (effects (font (size 1.524 1.524)))
    )
    (pin "1" (uuid 799a7f7d-0922-448c-bff8-2eb28f397829))
    (pin "2" (uuid c388e07a-5399-426d-87d4-9c813a9fadf5))
  )

  (symbol (lib_id "kiwi-rescue:TEST_POINT") (at 229.87 71.12 0) (unit 1)
    (in_bom yes) (on_board yes)
    (uuid 00000000-0000-0000-0000-0000556d0342)
    (property "Reference" "" (id 0) (at 229.87 67.31 0)
      (effects (font (size 1.524 1.524)))
    )
    (property "Value" "TEST_POINT" (id 1) (at 229.87 76.2 0)
      (effects (font (size 1.524 1.524)) hide)
    )
    (property "Footprint" "kiwi-TP_600" (id 2) (at 229.87 71.12 0)
      (effects (font (size 1.524 1.524)) hide)
    )
    (property "Datasheet" "~" (id 3) (at 229.87 71.12 0)
      (effects (font (size 1.524 1.524)))
    )
    (pin "1" (uuid 6131da9a-1c09-4bb8-814d-e3ed5d8d2f1d))
  )

  (symbol (lib_id "kiwi-rescue:TEST_POINT") (at 240.03 140.97 0) (unit 1)
    (in_bom yes) (on_board yes)
    (uuid 00000000-0000-0000-0000-0000556d03db)
    (property "Reference" "" (id 0) (at 240.03 137.16 0)
      (effects (font (size 1.524 1.524)))
    )
    (property "Value" "TEST_POINT" (id 1) (at 240.03 146.05 0)
      (effects (font (size 1.524 1.524)) hide)
    )
    (property "Footprint" "kiwi-TP_600" (id 2) (at 240.03 140.97 0)
      (effects (font (size 1.524 1.524)) hide)
    )
    (property "Datasheet" "~" (id 3) (at 240.03 140.97 0)
      (effects (font (size 1.524 1.524)))
    )
    (pin "1" (uuid fc302e70-b493-4486-8e2a-7fa79aabfbd1))
  )
)
