(kicad_sch (version 20211123) (generator eeschema)

  (uuid b2a9b312-ed1c-4e17-8bae-8a19f5680708)

  (paper "A4")

  (title_block
    (title "KiwiSDR Prototype, March 2016")
    (date "20 feb 2016")
    (rev "0.5")
    (company "John Seamons, ZL/KF6VO")
  )

  (lib_symbols
  )


  (sheet (at 119.38 22.86) (size 40.64 20.32) (fields_autoplaced)
    (stroke (width 0) (type solid) (color 0 0 0 0))
    (fill (color 0 0 0 0.0000))
    (uuid 00000000-0000-0000-0000-00004fe2765e)
    (property "Sheet name" "FPGA_Power" (id 0) (at 119.38 22.0214 0)
      (effects (font (size 1.524 1.524)) (justify left bottom))
    )
    (property "Sheet file" "kiwi.FPGA_power.kicad_sch" (id 1) (at 119.38 43.8662 0)
      (effects (font (size 1.524 1.524)) (justify left top))
    )
  )

  (sheet (at 58.42 53.34) (size 40.64 20.32) (fields_autoplaced)
    (stroke (width 0) (type solid) (color 0 0 0 0))
    (fill (color 0 0 0 0.0000))
    (uuid 00000000-0000-0000-0000-00004fe276d1)
    (property "Sheet name" "GPS" (id 0) (at 58.42 52.5014 0)
      (effects (font (size 1.524 1.524)) (justify left bottom))
    )
    (property "Sheet file" "kiwi.GPS.kicad_sch" (id 1) (at 58.42 74.3462 0)
      (effects (font (size 1.524 1.524)) (justify left top))
    )
  )

  (sheet (at 58.42 22.86) (size 40.64 20.32) (fields_autoplaced)
    (stroke (width 0) (type solid) (color 0 0 0 0))
    (fill (color 0 0 0 0.0000))
    (uuid 00000000-0000-0000-0000-00004fe276f4)
    (property "Sheet name" "ADC" (id 0) (at 58.42 22.0214 0)
      (effects (font (size 1.524 1.524)) (justify left bottom))
    )
    (property "Sheet file" "kiwi.ADC.kicad_sch" (id 1) (at 58.42 43.8662 0)
      (effects (font (size 1.524 1.524)) (justify left top))
    )
  )

  (sheet (at 58.42 83.82) (size 40.64 20.32) (fields_autoplaced)
    (stroke (width 0) (type solid) (color 0 0 0 0))
    (fill (color 0 0 0 0.0000))
    (uuid 00000000-0000-0000-0000-00004fe27749)
    (property "Sheet name" "BeagleBone" (id 0) (at 58.42 82.9814 0)
      (effects (font (size 1.524 1.524)) (justify left bottom))
    )
    (property "Sheet file" "kiwi.BeagleBone.kicad_sch" (id 1) (at 58.42 104.8262 0)
      (effects (font (size 1.524 1.524)) (justify left top))
    )
  )

  (sheet (at 58.42 114.3) (size 40.64 20.32) (fields_autoplaced)
    (stroke (width 0) (type solid) (color 0 0 0 0))
    (fill (color 0 0 0 0.0000))
    (uuid 00000000-0000-0000-0000-00004fe27757)
    (property "Sheet name" "FPGA_IO" (id 0) (at 58.42 113.4614 0)
      (effects (font (size 1.524 1.524)) (justify left bottom))
    )
    (property "Sheet file" "kiwi.FPGA_IO.kicad_sch" (id 1) (at 58.42 135.3062 0)
      (effects (font (size 1.524 1.524)) (justify left top))
    )
  )

  (sheet (at 119.38 53.34) (size 40.64 20.32) (fields_autoplaced)
    (stroke (width 0) (type solid) (color 0 0 0 0))
    (fill (color 0 0 0 0.0000))
    (uuid 00000000-0000-0000-0000-00004fe6399d)
    (property "Sheet name" "Power_Supplies" (id 0) (at 119.38 52.5014 0)
      (effects (font (size 1.524 1.524)) (justify left bottom))
    )
    (property "Sheet file" "kiwi.power_supplies.kicad_sch" (id 1) (at 119.38 74.3462 0)
      (effects (font (size 1.524 1.524)) (justify left top))
    )
  )

  (sheet_instances
    (path "/" (page "1"))
    (path "/00000000-0000-0000-0000-00004fe276f4" (page "2"))
    (path "/00000000-0000-0000-0000-00004fe276d1" (page "3"))
    (path "/00000000-0000-0000-0000-00004fe27749" (page "4"))
    (path "/00000000-0000-0000-0000-00004fe27757" (page "5"))
    (path "/00000000-0000-0000-0000-00004fe2765e" (page "6"))
    (path "/00000000-0000-0000-0000-00004fe6399d" (page "7"))
  )

  (symbol_instances
    (path "/00000000-0000-0000-0000-00004fe276f4/00000000-0000-0000-0000-000054e99045"
      (reference "#GND029") (unit 1) (value "GND") (footprint "~")
    )
    (path "/00000000-0000-0000-0000-00004fe276f4/00000000-0000-0000-0000-000052b75cbf"
      (reference "#PWR01") (unit 1) (value "GND") (footprint "")
    )
    (path "/00000000-0000-0000-0000-00004fe276f4/00000000-0000-0000-0000-000052bb591d"
      (reference "#PWR02") (unit 1) (value "GND") (footprint "")
    )
    (path "/00000000-0000-0000-0000-00004fe276f4/00000000-0000-0000-0000-000052be3fa1"
      (reference "#PWR03") (unit 1) (value "GND") (footprint "")
    )
    (path "/00000000-0000-0000-0000-00004fe276f4/00000000-0000-0000-0000-000052be3fa7"
      (reference "#PWR04") (unit 1) (value "GND") (footprint "")
    )
    (path "/00000000-0000-0000-0000-00004fe276f4/00000000-0000-0000-0000-000052be57e3"
      (reference "#PWR05") (unit 1) (value "GND") (footprint "")
    )
    (path "/00000000-0000-0000-0000-00004fe276f4/00000000-0000-0000-0000-000052be63ac"
      (reference "#PWR06") (unit 1) (value "GND") (footprint "")
    )
    (path "/00000000-0000-0000-0000-00004fe276f4/00000000-0000-0000-0000-000052be6a21"
      (reference "#PWR07") (unit 1) (value "GND") (footprint "")
    )
    (path "/00000000-0000-0000-0000-00004fe276f4/00000000-0000-0000-0000-000052be74f4"
      (reference "#PWR08") (unit 1) (value "GND") (footprint "")
    )
    (path "/00000000-0000-0000-0000-00004fe276f4/00000000-0000-0000-0000-000052be833d"
      (reference "#PWR09") (unit 1) (value "GND") (footprint "")
    )
    (path "/00000000-0000-0000-0000-00004fe276f4/00000000-0000-0000-0000-000052be934b"
      (reference "#PWR010") (unit 1) (value "GND") (footprint "")
    )
    (path "/00000000-0000-0000-0000-00004fe276f4/00000000-0000-0000-0000-000052be9842"
      (reference "#PWR011") (unit 1) (value "GND") (footprint "")
    )
    (path "/00000000-0000-0000-0000-00004fe276f4/00000000-0000-0000-0000-000052c0d0af"
      (reference "#PWR012") (unit 1) (value "3.3A") (footprint "~")
    )
    (path "/00000000-0000-0000-0000-00004fe276f4/00000000-0000-0000-0000-000052c0d0be"
      (reference "#PWR013") (unit 1) (value "3.3A") (footprint "~")
    )
    (path "/00000000-0000-0000-0000-00004fe276f4/00000000-0000-0000-0000-000052c0db7c"
      (reference "#PWR014") (unit 1) (value "3.3A") (footprint "~")
    )
    (path "/00000000-0000-0000-0000-00004fe276f4/00000000-0000-0000-0000-000052c0db9c"
      (reference "#PWR015") (unit 1) (value "3.3A") (footprint "~")
    )
    (path "/00000000-0000-0000-0000-00004fe276f4/00000000-0000-0000-0000-000052c0e166"
      (reference "#PWR016") (unit 1) (value "GND") (footprint "")
    )
    (path "/00000000-0000-0000-0000-00004fe276f4/00000000-0000-0000-0000-000052c0e23d"
      (reference "#PWR017") (unit 1) (value "GND") (footprint "")
    )
    (path "/00000000-0000-0000-0000-00004fe276f4/00000000-0000-0000-0000-000052c0edcd"
      (reference "#PWR018") (unit 1) (value "GND") (footprint "")
    )
    (path "/00000000-0000-0000-0000-00004fe276f4/00000000-0000-0000-0000-000052c37978"
      (reference "#PWR019") (unit 1) (value "5V") (footprint "~")
    )
    (path "/00000000-0000-0000-0000-00004fe276f4/00000000-0000-0000-0000-000052c43c07"
      (reference "#PWR020") (unit 1) (value "5V") (footprint "~")
    )
    (path "/00000000-0000-0000-0000-00004fe276f4/00000000-0000-0000-0000-000052db5080"
      (reference "#PWR021") (unit 1) (value "GND") (footprint "")
    )
    (path "/00000000-0000-0000-0000-00004fe276f4/00000000-0000-0000-0000-000052db8753"
      (reference "#PWR022") (unit 1) (value "GND") (footprint "")
    )
    (path "/00000000-0000-0000-0000-00004fe276f4/00000000-0000-0000-0000-000052db898a"
      (reference "#PWR023") (unit 1) (value "GND") (footprint "")
    )
    (path "/00000000-0000-0000-0000-00004fe276f4/00000000-0000-0000-0000-000052db8b77"
      (reference "#PWR024") (unit 1) (value "GND") (footprint "")
    )
    (path "/00000000-0000-0000-0000-00004fe276f4/00000000-0000-0000-0000-000052db97d7"
      (reference "#PWR025") (unit 1) (value "3.3A") (footprint "~")
    )
    (path "/00000000-0000-0000-0000-00004fe276f4/00000000-0000-0000-0000-000052dba9d6"
      (reference "#PWR026") (unit 1) (value "GND") (footprint "")
    )
    (path "/00000000-0000-0000-0000-00004fe276f4/00000000-0000-0000-0000-000052dbc0c7"
      (reference "#PWR027") (unit 1) (value "3.3A") (footprint "~")
    )
    (path "/00000000-0000-0000-0000-00004fe276f4/00000000-0000-0000-0000-000052db7c71"
      (reference "#PWR028") (unit 1) (value "GND") (footprint "")
    )
    (path "/00000000-0000-0000-0000-00004fe276f4/00000000-0000-0000-0000-000054e99b00"
      (reference "#PWR030") (unit 1) (value "PWR_DRV") (footprint "~")
    )
    (path "/00000000-0000-0000-0000-00004fe276f4/00000000-0000-0000-0000-000054f39e1a"
      (reference "#PWR031") (unit 1) (value "GND") (footprint "")
    )
    (path "/00000000-0000-0000-0000-00004fe276f4/00000000-0000-0000-0000-000054f3a48f"
      (reference "#PWR032") (unit 1) (value "3.3A") (footprint "~")
    )
    (path "/00000000-0000-0000-0000-00004fe276f4/00000000-0000-0000-0000-000054f4ea5a"
      (reference "#PWR033") (unit 1) (value "GND") (footprint "")
    )
    (path "/00000000-0000-0000-0000-00004fe276f4/00000000-0000-0000-0000-00005503ac25"
      (reference "#PWR034") (unit 1) (value "GND") (footprint "")
    )
    (path "/00000000-0000-0000-0000-00004fe276f4/00000000-0000-0000-0000-00005503ac2b"
      (reference "#PWR035") (unit 1) (value "GND") (footprint "")
    )
    (path "/00000000-0000-0000-0000-00004fe276f4/00000000-0000-0000-0000-000055276d5a"
      (reference "#PWR036") (unit 1) (value "GND") (footprint "")
    )
    (path "/00000000-0000-0000-0000-00004fe276f4/00000000-0000-0000-0000-00005536a2a1"
      (reference "#PWR037") (unit 1) (value "3.3A") (footprint "~")
    )
    (path "/00000000-0000-0000-0000-00004fe276f4/00000000-0000-0000-0000-00005536aa18"
      (reference "#PWR038") (unit 1) (value "GND") (footprint "")
    )
    (path "/00000000-0000-0000-0000-00004fe276f4/00000000-0000-0000-0000-00005546a685"
      (reference "#PWR039") (unit 1) (value "GND") (footprint "")
    )
    (path "/00000000-0000-0000-0000-00004fe276f4/00000000-0000-0000-0000-0000554702e3"
      (reference "#PWR040") (unit 1) (value "PWR_DRV") (footprint "~")
    )
    (path "/00000000-0000-0000-0000-00004fe276f4/00000000-0000-0000-0000-0000558b3ec5"
      (reference "#PWR041") (unit 1) (value "3.3A") (footprint "~")
    )
    (path "/00000000-0000-0000-0000-00004fe276f4/00000000-0000-0000-0000-0000558b3ed1"
      (reference "#PWR042") (unit 1) (value "GND") (footprint "")
    )
    (path "/00000000-0000-0000-0000-00004fe276f4/00000000-0000-0000-0000-0000558b477e"
      (reference "#PWR043") (unit 1) (value "GND") (footprint "")
    )
    (path "/00000000-0000-0000-0000-00004fe276f4/00000000-0000-0000-0000-0000558b4dae"
      (reference "#PWR044") (unit 1) (value "GND") (footprint "")
    )
    (path "/00000000-0000-0000-0000-00004fe276f4/00000000-0000-0000-0000-0000558b61c0"
      (reference "#PWR045") (unit 1) (value "GND") (footprint "")
    )
    (path "/00000000-0000-0000-0000-00004fe276d1/00000000-0000-0000-0000-000052b64b99"
      (reference "#PWR046") (unit 1) (value "GND") (footprint "")
    )
    (path "/00000000-0000-0000-0000-00004fe276d1/00000000-0000-0000-0000-000052b683ac"
      (reference "#PWR047") (unit 1) (value "GND") (footprint "")
    )
    (path "/00000000-0000-0000-0000-00004fe276d1/00000000-0000-0000-0000-000052b6876d"
      (reference "#PWR048") (unit 1) (value "GND") (footprint "")
    )
    (path "/00000000-0000-0000-0000-00004fe276d1/00000000-0000-0000-0000-000052b6966e"
      (reference "#PWR049") (unit 1) (value "GND") (footprint "")
    )
    (path "/00000000-0000-0000-0000-00004fe276d1/00000000-0000-0000-0000-000052b6a1b9"
      (reference "#PWR050") (unit 1) (value "GND") (footprint "")
    )
    (path "/00000000-0000-0000-0000-00004fe276d1/00000000-0000-0000-0000-000052b6b004"
      (reference "#PWR051") (unit 1) (value "GND") (footprint "")
    )
    (path "/00000000-0000-0000-0000-00004fe276d1/00000000-0000-0000-0000-000052b6b5a2"
      (reference "#PWR052") (unit 1) (value "GND") (footprint "")
    )
    (path "/00000000-0000-0000-0000-00004fe276d1/00000000-0000-0000-0000-000052b6b5a8"
      (reference "#PWR053") (unit 1) (value "GND") (footprint "")
    )
    (path "/00000000-0000-0000-0000-00004fe276d1/00000000-0000-0000-0000-000052b6bd84"
      (reference "#PWR054") (unit 1) (value "GND") (footprint "")
    )
    (path "/00000000-0000-0000-0000-00004fe276d1/00000000-0000-0000-0000-000052b78a95"
      (reference "#PWR055") (unit 1) (value "GND") (footprint "")
    )
    (path "/00000000-0000-0000-0000-00004fe276d1/00000000-0000-0000-0000-000052bb8951"
      (reference "#PWR056") (unit 1) (value "GND") (footprint "")
    )
    (path "/00000000-0000-0000-0000-00004fe276d1/00000000-0000-0000-0000-000052c1027c"
      (reference "#PWR057") (unit 1) (value "3.3G") (footprint "~")
    )
    (path "/00000000-0000-0000-0000-00004fe276d1/00000000-0000-0000-0000-000052c104c8"
      (reference "#PWR058") (unit 1) (value "GND") (footprint "")
    )
    (path "/00000000-0000-0000-0000-00004fe276d1/00000000-0000-0000-0000-000052c104e1"
      (reference "#PWR059") (unit 1) (value "GND") (footprint "")
    )
    (path "/00000000-0000-0000-0000-00004fe276d1/00000000-0000-0000-0000-000052c10a70"
      (reference "#PWR060") (unit 1) (value "GND") (footprint "")
    )
    (path "/00000000-0000-0000-0000-00004fe276d1/00000000-0000-0000-0000-000052c11581"
      (reference "#PWR061") (unit 1) (value "3.3G") (footprint "~")
    )
    (path "/00000000-0000-0000-0000-00004fe276d1/00000000-0000-0000-0000-000052c11591"
      (reference "#PWR062") (unit 1) (value "3.3G") (footprint "~")
    )
    (path "/00000000-0000-0000-0000-00004fe276d1/00000000-0000-0000-0000-000052c11a97"
      (reference "#PWR063") (unit 1) (value "3.3G") (footprint "~")
    )
    (path "/00000000-0000-0000-0000-00004fe276d1/00000000-0000-0000-0000-000052c11aa7"
      (reference "#PWR064") (unit 1) (value "3.3G") (footprint "~")
    )
    (path "/00000000-0000-0000-0000-00004fe276d1/00000000-0000-0000-0000-000052c11ab7"
      (reference "#PWR065") (unit 1) (value "3.3G") (footprint "~")
    )
    (path "/00000000-0000-0000-0000-00004fe276d1/00000000-0000-0000-0000-000052c11fbd"
      (reference "#PWR066") (unit 1) (value "3.3G") (footprint "~")
    )
    (path "/00000000-0000-0000-0000-00004fe276d1/00000000-0000-0000-0000-000052c36c1d"
      (reference "#PWR067") (unit 1) (value "5V") (footprint "~")
    )
    (path "/00000000-0000-0000-0000-00004fe276d1/00000000-0000-0000-0000-000052c43799"
      (reference "#PWR068") (unit 1) (value "5V") (footprint "~")
    )
    (path "/00000000-0000-0000-0000-00004fe276d1/00000000-0000-0000-0000-000052c39bfe"
      (reference "#PWR069") (unit 1) (value "GND") (footprint "")
    )
    (path "/00000000-0000-0000-0000-00004fe276d1/00000000-0000-0000-0000-000052db78c7"
      (reference "#PWR070") (unit 1) (value "GND") (footprint "")
    )
    (path "/00000000-0000-0000-0000-00004fe276d1/00000000-0000-0000-0000-000054e99018"
      (reference "#PWR071") (unit 1) (value "PWR_DRV") (footprint "~")
    )
    (path "/00000000-0000-0000-0000-00004fe276d1/00000000-0000-0000-0000-0000551bc5e2"
      (reference "#PWR072") (unit 1) (value "GND") (footprint "")
    )
    (path "/00000000-0000-0000-0000-00004fe276d1/00000000-0000-0000-0000-0000552afdf0"
      (reference "#PWR073") (unit 1) (value "GND") (footprint "")
    )
    (path "/00000000-0000-0000-0000-00004fe276d1/00000000-0000-0000-0000-0000552afdf6"
      (reference "#PWR074") (unit 1) (value "GND") (footprint "")
    )
    (path "/00000000-0000-0000-0000-00004fe276d1/00000000-0000-0000-0000-00005546a7a2"
      (reference "#PWR075") (unit 1) (value "GND") (footprint "")
    )
    (path "/00000000-0000-0000-0000-00004fe276d1/00000000-0000-0000-0000-000055470b9a"
      (reference "#PWR076") (unit 1) (value "PWR_DRV") (footprint "~")
    )
    (path "/00000000-0000-0000-0000-00004fe276d1/00000000-0000-0000-0000-0000556cf05c"
      (reference "#PWR077") (unit 1) (value "GND") (footprint "")
    )
    (path "/00000000-0000-0000-0000-00004fe27749/00000000-0000-0000-0000-000050883e8b"
      (reference "#PWR078") (unit 1) (value "GND") (footprint "")
    )
    (path "/00000000-0000-0000-0000-00004fe27749/00000000-0000-0000-0000-000052b50f97"
      (reference "#PWR079") (unit 1) (value "GND") (footprint "")
    )
    (path "/00000000-0000-0000-0000-00004fe27749/00000000-0000-0000-0000-000052b50f9d"
      (reference "#PWR080") (unit 1) (value "GND") (footprint "")
    )
    (path "/00000000-0000-0000-0000-00004fe27749/00000000-0000-0000-0000-000052b5318a"
      (reference "#PWR081") (unit 1) (value "3.3") (footprint "")
    )
    (path "/00000000-0000-0000-0000-00004fe27749/00000000-0000-0000-0000-000052c32ee0"
      (reference "#PWR082") (unit 1) (value "3.3") (footprint "")
    )
    (path "/00000000-0000-0000-0000-00004fe27749/00000000-0000-0000-0000-000052c350f6"
      (reference "#PWR083") (unit 1) (value "GND") (footprint "")
    )
    (path "/00000000-0000-0000-0000-00004fe27749/00000000-0000-0000-0000-000054e40e84"
      (reference "#PWR084") (unit 1) (value "3.3") (footprint "")
    )
    (path "/00000000-0000-0000-0000-00004fe27749/00000000-0000-0000-0000-000054e413eb"
      (reference "#PWR085") (unit 1) (value "3.3") (footprint "")
    )
    (path "/00000000-0000-0000-0000-00004fe27749/00000000-0000-0000-0000-000054e41961"
      (reference "#PWR086") (unit 1) (value "GND") (footprint "")
    )
    (path "/00000000-0000-0000-0000-00004fe27749/00000000-0000-0000-0000-000054e41967"
      (reference "#PWR087") (unit 1) (value "GND") (footprint "")
    )
    (path "/00000000-0000-0000-0000-00004fe27749/00000000-0000-0000-0000-000054e98a99"
      (reference "#PWR088") (unit 1) (value "PWR_DRV") (footprint "~")
    )
    (path "/00000000-0000-0000-0000-00004fe27749/00000000-0000-0000-0000-000054f3e394"
      (reference "#PWR089") (unit 1) (value "PWR_DRV") (footprint "~")
    )
    (path "/00000000-0000-0000-0000-00004fe27749/00000000-0000-0000-0000-000054f3e39b"
      (reference "#PWR090") (unit 1) (value "3.3") (footprint "")
    )
    (path "/00000000-0000-0000-0000-00004fe27749/00000000-0000-0000-0000-000054f3e4a4"
      (reference "#PWR091") (unit 1) (value "3.3") (footprint "")
    )
    (path "/00000000-0000-0000-0000-00004fe27749/00000000-0000-0000-0000-0000553711d5"
      (reference "#PWR092") (unit 1) (value "5EXT") (footprint "~")
    )
    (path "/00000000-0000-0000-0000-00004fe27749/00000000-0000-0000-0000-0000553712c6"
      (reference "#PWR093") (unit 1) (value "5EXT") (footprint "~")
    )
    (path "/00000000-0000-0000-0000-00004fe27749/00000000-0000-0000-0000-00005537278c"
      (reference "#PWR094") (unit 1) (value "PWR_DRV") (footprint "~")
    )
    (path "/00000000-0000-0000-0000-00004fe27749/00000000-0000-0000-0000-000055372792"
      (reference "#PWR095") (unit 1) (value "PWR_DRV") (footprint "~")
    )
    (path "/00000000-0000-0000-0000-00004fe27749/00000000-0000-0000-0000-0000554bc6ac"
      (reference "#PWR096") (unit 1) (value "3.3") (footprint "")
    )
    (path "/00000000-0000-0000-0000-00004fe27749/00000000-0000-0000-0000-0000554bc6d0"
      (reference "#PWR097") (unit 1) (value "3.3") (footprint "")
    )
    (path "/00000000-0000-0000-0000-00004fe27749/00000000-0000-0000-0000-000056c6f97b"
      (reference "#PWR098") (unit 1) (value "5V") (footprint "~")
    )
    (path "/00000000-0000-0000-0000-00004fe27749/00000000-0000-0000-0000-000056c70158"
      (reference "#PWR099") (unit 1) (value "5EXT") (footprint "~")
    )
    (path "/00000000-0000-0000-0000-00004fe27749/00000000-0000-0000-0000-000056c6fa01"
      (reference "#PWR0100") (unit 1) (value "5V") (footprint "~")
    )
    (path "/00000000-0000-0000-0000-00004fe27749/00000000-0000-0000-0000-000056c7f1ba"
      (reference "#PWR0101") (unit 1) (value "GND") (footprint "")
    )
    (path "/00000000-0000-0000-0000-00004fe2765e/00000000-0000-0000-0000-000054e43cf7"
      (reference "#PWR0102") (unit 1) (value "GND") (footprint "")
    )
    (path "/00000000-0000-0000-0000-00004fe2765e/00000000-0000-0000-0000-000054e40f6e"
      (reference "#PWR0103") (unit 1) (value "1.0") (footprint "~")
    )
    (path "/00000000-0000-0000-0000-00004fe2765e/00000000-0000-0000-0000-000054e419c4"
      (reference "#PWR0104") (unit 1) (value "GND") (footprint "")
    )
    (path "/00000000-0000-0000-0000-00004fe2765e/00000000-0000-0000-0000-000054e4504a"
      (reference "#PWR0105") (unit 1) (value "1.8") (footprint "~")
    )
    (path "/00000000-0000-0000-0000-00004fe2765e/00000000-0000-0000-0000-000054e4b21d"
      (reference "#PWR0106") (unit 1) (value "GND") (footprint "")
    )
    (path "/00000000-0000-0000-0000-00004fe2765e/00000000-0000-0000-0000-000054e4b6d6"
      (reference "#PWR0107") (unit 1) (value "GND") (footprint "")
    )
    (path "/00000000-0000-0000-0000-00004fe2765e/00000000-0000-0000-0000-000054e4b6dc"
      (reference "#PWR0108") (unit 1) (value "GND") (footprint "")
    )
    (path "/00000000-0000-0000-0000-00004fe2765e/00000000-0000-0000-0000-000054e4b6e2"
      (reference "#PWR0109") (unit 1) (value "GND") (footprint "")
    )
    (path "/00000000-0000-0000-0000-00004fe2765e/00000000-0000-0000-0000-000054e4bc8a"
      (reference "#PWR0110") (unit 1) (value "GND") (footprint "")
    )
    (path "/00000000-0000-0000-0000-00004fe2765e/00000000-0000-0000-0000-000054e4d1ec"
      (reference "#PWR0111") (unit 1) (value "GND") (footprint "")
    )
    (path "/00000000-0000-0000-0000-00004fe2765e/00000000-0000-0000-0000-000054e4e1b5"
      (reference "#PWR0112") (unit 1) (value "3.3") (footprint "~")
    )
    (path "/00000000-0000-0000-0000-00004fe2765e/00000000-0000-0000-0000-000054e4ebe9"
      (reference "#PWR0113") (unit 1) (value "1.8") (footprint "~")
    )
    (path "/00000000-0000-0000-0000-00004fe6399d/00000000-0000-0000-0000-000050832a56"
      (reference "#PWR0114") (unit 1) (value "GND") (footprint "")
    )
    (path "/00000000-0000-0000-0000-00004fe6399d/00000000-0000-0000-0000-000052c1f4ea"
      (reference "#PWR0115") (unit 1) (value "GND") (footprint "")
    )
    (path "/00000000-0000-0000-0000-00004fe6399d/00000000-0000-0000-0000-000052c20291"
      (reference "#PWR0116") (unit 1) (value "5V") (footprint "~")
    )
    (path "/00000000-0000-0000-0000-00004fe6399d/00000000-0000-0000-0000-000054e56abd"
      (reference "#PWR0117") (unit 1) (value "5V") (footprint "~")
    )
    (path "/00000000-0000-0000-0000-00004fe6399d/00000000-0000-0000-0000-000054e56acd"
      (reference "#PWR0118") (unit 1) (value "GND") (footprint "~")
    )
    (path "/00000000-0000-0000-0000-00004fe6399d/00000000-0000-0000-0000-000054e56ae2"
      (reference "#PWR0119") (unit 1) (value "1.8") (footprint "~")
    )
    (path "/00000000-0000-0000-0000-00004fe6399d/00000000-0000-0000-0000-000054e552b4"
      (reference "#PWR0120") (unit 1) (value "1.0") (footprint "~")
    )
    (path "/00000000-0000-0000-0000-00004fe6399d/00000000-0000-0000-0000-000054e9a12c"
      (reference "#PWR0121") (unit 1) (value "PWR_DRV") (footprint "~")
    )
    (path "/00000000-0000-0000-0000-00004fe6399d/00000000-0000-0000-0000-000054f3efd6"
      (reference "#PWR0122") (unit 1) (value "GND") (footprint "~")
    )
    (path "/00000000-0000-0000-0000-00004fe6399d/00000000-0000-0000-0000-000054f3f01f"
      (reference "#PWR0123") (unit 1) (value "GND") (footprint "~")
    )
    (path "/00000000-0000-0000-0000-00004fe6399d/00000000-0000-0000-0000-000055274ae8"
      (reference "#PWR0124") (unit 1) (value "5V") (footprint "~")
    )
    (path "/00000000-0000-0000-0000-00004fe6399d/00000000-0000-0000-0000-0000552ee5d9"
      (reference "#PWR0125") (unit 1) (value "1.8") (footprint "~")
    )
    (path "/00000000-0000-0000-0000-00004fe2765e/00000000-0000-0000-0000-000054e4358d"
      (reference "C1") (unit 1) (value "470n") (footprint "kiwi-SM0402")
    )
    (path "/00000000-0000-0000-0000-00004fe2765e/00000000-0000-0000-0000-000054e45f27"
      (reference "C2") (unit 1) (value "470n") (footprint "kiwi-SM0402")
    )
    (path "/00000000-0000-0000-0000-00004fe2765e/00000000-0000-0000-0000-000054e463f5"
      (reference "C3") (unit 1) (value "470n") (footprint "kiwi-SM0402")
    )
    (path "/00000000-0000-0000-0000-00004fe2765e/00000000-0000-0000-0000-000054e43a36"
      (reference "C5") (unit 1) (value "100u") (footprint "kiwi-SM1206")
    )
    (path "/00000000-0000-0000-0000-00004fe2765e/00000000-0000-0000-0000-000054e46c02"
      (reference "C6") (unit 1) (value "470n") (footprint "kiwi-SM0402")
    )
    (path "/00000000-0000-0000-0000-00004fe2765e/00000000-0000-0000-0000-000054e43593"
      (reference "C7") (unit 1) (value "470n") (footprint "kiwi-SM0402")
    )
    (path "/00000000-0000-0000-0000-00004fe2765e/00000000-0000-0000-0000-000054e45f5d"
      (reference "C8") (unit 1) (value "470n") (footprint "kiwi-SM0402")
    )
    (path "/00000000-0000-0000-0000-00004fe2765e/00000000-0000-0000-0000-000054e423d8"
      (reference "C9") (unit 1) (value "4.7u") (footprint "kiwi-SM0402")
    )
    (path "/00000000-0000-0000-0000-00004fe2765e/00000000-0000-0000-0000-000054e46c08"
      (reference "C11") (unit 1) (value "470n") (footprint "kiwi-SM0402")
    )
    (path "/00000000-0000-0000-0000-00004fe2765e/00000000-0000-0000-0000-000054e46c0e"
      (reference "C12") (unit 1) (value "470n") (footprint "kiwi-SM0402")
    )
    (path "/00000000-0000-0000-0000-00004fe2765e/00000000-0000-0000-0000-000054e43599"
      (reference "C13") (unit 1) (value "470n") (footprint "kiwi-SM0402")
    )
    (path "/00000000-0000-0000-0000-00004fe2765e/00000000-0000-0000-0000-000054e463fb"
      (reference "C14") (unit 1) (value "4.7u") (footprint "kiwi-SM0402")
    )
    (path "/00000000-0000-0000-0000-00004fe2765e/00000000-0000-0000-0000-000054e4365a"
      (reference "C15") (unit 1) (value "470n") (footprint "kiwi-SM0402")
    )
    (path "/00000000-0000-0000-0000-00004fe2765e/00000000-0000-0000-0000-000054e46c3d"
      (reference "C16") (unit 1) (value "470n") (footprint "kiwi-SM0402")
    )
    (path "/00000000-0000-0000-0000-00004fe2765e/00000000-0000-0000-0000-000054e46c1a"
      (reference "C17") (unit 1) (value "4.7u") (footprint "kiwi-SM0402")
    )
    (path "/00000000-0000-0000-0000-00004fe2765e/00000000-0000-0000-0000-000054e46c14"
      (reference "C18") (unit 1) (value "4.7u") (footprint "kiwi-SM0402")
    )
    (path "/00000000-0000-0000-0000-00004fe2765e/00000000-0000-0000-0000-000054e41406"
      (reference "C20") (unit 1) (value "100u") (footprint "kiwi-SM1206")
    )
    (path "/00000000-0000-0000-0000-00004fe2765e/00000000-0000-0000-0000-000054e47335"
      (reference "C23") (unit 1) (value "470n") (footprint "kiwi-SM0402")
    )
    (path "/00000000-0000-0000-0000-00004fe2765e/00000000-0000-0000-0000-000054e4733b"
      (reference "C24") (unit 1) (value "470n") (footprint "kiwi-SM0402")
    )
    (path "/00000000-0000-0000-0000-00004fe2765e/00000000-0000-0000-0000-000054e47341"
      (reference "C25") (unit 1) (value "470n") (footprint "kiwi-SM0402")
    )
    (path "/00000000-0000-0000-0000-00004fe2765e/00000000-0000-0000-0000-000054e47370"
      (reference "C26") (unit 1) (value "470n") (footprint "kiwi-SM0402")
    )
    (path "/00000000-0000-0000-0000-00004fe2765e/00000000-0000-0000-0000-000054e4734d"
      (reference "C27") (unit 1) (value "4.7u") (footprint "kiwi-SM0402")
    )
    (path "/00000000-0000-0000-0000-00004fe2765e/00000000-0000-0000-0000-000054e47347"
      (reference "C28") (unit 1) (value "4.7u") (footprint "kiwi-SM0402")
    )
    (path "/00000000-0000-0000-0000-00004fe2765e/00000000-0000-0000-0000-000054e46c20"
      (reference "C29") (unit 1) (value "100u") (footprint "kiwi-SM1206")
    )
    (path "/00000000-0000-0000-0000-00004fe2765e/00000000-0000-0000-0000-000054e47831"
      (reference "C30") (unit 1) (value "470n") (footprint "kiwi-SM0402")
    )
    (path "/00000000-0000-0000-0000-00004fe2765e/00000000-0000-0000-0000-000054e47837"
      (reference "C31") (unit 1) (value "470n") (footprint "kiwi-SM0402")
    )
    (path "/00000000-0000-0000-0000-00004fe2765e/00000000-0000-0000-0000-000054e4783d"
      (reference "C32") (unit 1) (value "470n") (footprint "kiwi-SM0402")
    )
    (path "/00000000-0000-0000-0000-00004fe2765e/00000000-0000-0000-0000-000054e47862"
      (reference "C33") (unit 1) (value "470n") (footprint "kiwi-SM0402")
    )
    (path "/00000000-0000-0000-0000-00004fe2765e/00000000-0000-0000-0000-000054e47849"
      (reference "C34") (unit 1) (value "4.7u") (footprint "kiwi-SM0402")
    )
    (path "/00000000-0000-0000-0000-00004fe2765e/00000000-0000-0000-0000-000054e47843"
      (reference "C35") (unit 1) (value "4.7u") (footprint "kiwi-SM0402")
    )
    (path "/00000000-0000-0000-0000-00004fe2765e/00000000-0000-0000-0000-000054e4737b"
      (reference "C36") (unit 1) (value "470n") (footprint "kiwi-SM0402")
    )
    (path "/00000000-0000-0000-0000-00004fe2765e/00000000-0000-0000-0000-000054e47381"
      (reference "C37") (unit 1) (value "470n") (footprint "kiwi-SM0402")
    )
    (path "/00000000-0000-0000-0000-00004fe2765e/00000000-0000-0000-0000-000054e47387"
      (reference "C38") (unit 1) (value "470n") (footprint "kiwi-SM0402")
    )
    (path "/00000000-0000-0000-0000-00004fe2765e/00000000-0000-0000-0000-000054e473b6"
      (reference "C39") (unit 1) (value "470n") (footprint "kiwi-SM0402")
    )
    (path "/00000000-0000-0000-0000-00004fe2765e/00000000-0000-0000-0000-000054e47393"
      (reference "C40") (unit 1) (value "4.7u") (footprint "kiwi-SM0402")
    )
    (path "/00000000-0000-0000-0000-00004fe2765e/00000000-0000-0000-0000-000054e4738d"
      (reference "C41") (unit 1) (value "4.7u") (footprint "kiwi-SM0402")
    )
    (path "/00000000-0000-0000-0000-00004fe2765e/00000000-0000-0000-0000-000055265ac7"
      (reference "C42") (unit 1) (value "470n") (footprint "kiwi-SM0402")
    )
    (path "/00000000-0000-0000-0000-00004fe276d1/00000000-0000-0000-0000-000052b6718c"
      (reference "C101") (unit 1) (value "22p") (footprint "kiwi-SM0402")
    )
    (path "/00000000-0000-0000-0000-00004fe276d1/00000000-0000-0000-0000-000052b68ad6"
      (reference "C104") (unit 1) (value "22p") (footprint "kiwi-SM0402")
    )
    (path "/00000000-0000-0000-0000-00004fe276d1/00000000-0000-0000-0000-000052b699d7"
      (reference "C105") (unit 1) (value "10n") (footprint "kiwi-SM0402")
    )
    (path "/00000000-0000-0000-0000-00004fe276d1/00000000-0000-0000-0000-000052b68985"
      (reference "C106") (unit 1) (value "10n") (footprint "kiwi-SM0402")
    )
    (path "/00000000-0000-0000-0000-00004fe276d1/00000000-0000-0000-0000-000052c393bc"
      (reference "C107") (unit 1) (value "DNL 10n") (footprint "kiwi-SM0402")
    )
    (path "/00000000-0000-0000-0000-00004fe276d1/00000000-0000-0000-0000-000052b6bd7e"
      (reference "C190") (unit 1) (value "100n") (footprint "kiwi-SM0402")
    )
    (path "/00000000-0000-0000-0000-00004fe276d1/00000000-0000-0000-0000-000052b6a12b"
      (reference "C191") (unit 1) (value "100n") (footprint "kiwi-SM0402")
    )
    (path "/00000000-0000-0000-0000-00004fe276d1/00000000-0000-0000-0000-000052b6b0af"
      (reference "C192") (unit 1) (value "100n") (footprint "kiwi-SM0402")
    )
    (path "/00000000-0000-0000-0000-00004fe276d1/00000000-0000-0000-0000-000052b6b04d"
      (reference "C193") (unit 1) (value "10n") (footprint "kiwi-SM0402")
    )
    (path "/00000000-0000-0000-0000-00004fe276d1/00000000-0000-0000-0000-000052b6898b"
      (reference "C194") (unit 1) (value "100p") (footprint "kiwi-SM0402")
    )
    (path "/00000000-0000-0000-0000-00004fe276d1/00000000-0000-0000-0000-000052bb894b"
      (reference "C195") (unit 1) (value "100n") (footprint "kiwi-SM0402")
    )
    (path "/00000000-0000-0000-0000-00004fe276d1/00000000-0000-0000-0000-000052c1043b"
      (reference "C196") (unit 1) (value "1u") (footprint "kiwi-SM0402")
    )
    (path "/00000000-0000-0000-0000-00004fe276d1/00000000-0000-0000-0000-000052c104da"
      (reference "C197") (unit 1) (value "1u") (footprint "kiwi-SM0402")
    )
    (path "/00000000-0000-0000-0000-00004fe27749/00000000-0000-0000-0000-000052c35026"
      (reference "C301") (unit 1) (value "100n") (footprint "kiwi-SM0402")
    )
    (path "/00000000-0000-0000-0000-00004fe27749/00000000-0000-0000-0000-000056c7ce41"
      (reference "C302") (unit 1) (value "470n") (footprint "kiwi-SM0402")
    )
    (path "/00000000-0000-0000-0000-00004fe27749/00000000-0000-0000-0000-000056c7e011"
      (reference "C303") (unit 1) (value "10n") (footprint "kiwi-SM0402")
    )
    (path "/00000000-0000-0000-0000-00004fe27749/00000000-0000-0000-0000-000056c7ee52"
      (reference "C304") (unit 1) (value "470n") (footprint "kiwi-SM0402")
    )
    (path "/00000000-0000-0000-0000-00004fe27749/00000000-0000-0000-0000-000056c7ee4c"
      (reference "C305") (unit 1) (value "10n") (footprint "kiwi-SM0402")
    )
    (path "/00000000-0000-0000-0000-00004fe276f4/00000000-0000-0000-0000-000052ba03cb"
      (reference "C401") (unit 1) (value "56p/100") (footprint "kiwi-SM0402")
    )
    (path "/00000000-0000-0000-0000-00004fe276f4/00000000-0000-0000-0000-000052ba041c"
      (reference "C402") (unit 1) (value "160p/50") (footprint "kiwi-SM0402")
    )
    (path "/00000000-0000-0000-0000-00004fe276f4/00000000-0000-0000-0000-000052ba042b"
      (reference "C403") (unit 1) (value "160p/50") (footprint "kiwi-SM0402")
    )
    (path "/00000000-0000-0000-0000-00004fe276f4/00000000-0000-0000-0000-000052ba0434"
      (reference "C404") (unit 1) (value "56p/100") (footprint "kiwi-SM0402")
    )
    (path "/00000000-0000-0000-0000-00004fe276f4/00000000-0000-0000-0000-000054f911b6"
      (reference "C405") (unit 1) (value "1n/100") (footprint "kiwi-SM0805")
    )
    (path "/00000000-0000-0000-0000-00004fe276f4/00000000-0000-0000-0000-000054ed8e81"
      (reference "C406") (unit 1) (value "470n/100") (footprint "kiwi-SM1206")
    )
    (path "/00000000-0000-0000-0000-00004fe276f4/00000000-0000-0000-0000-00005507524e"
      (reference "C407") (unit 1) (value "1n") (footprint "kiwi-SM0402")
    )
    (path "/00000000-0000-0000-0000-00004fe276f4/00000000-0000-0000-0000-000052dba9c7"
      (reference "C408") (unit 1) (value "100p") (footprint "kiwi-SM0402")
    )
    (path "/00000000-0000-0000-0000-00004fe276f4/00000000-0000-0000-0000-000052bbade1"
      (reference "C409") (unit 1) (value "1n") (footprint "kiwi-SM0402")
    )
    (path "/00000000-0000-0000-0000-00004fe276f4/00000000-0000-0000-0000-000052c14ea6"
      (reference "C410") (unit 1) (value "470n") (footprint "kiwi-SM0402")
    )
    (path "/00000000-0000-0000-0000-00004fe276f4/00000000-0000-0000-0000-000052bbadf7"
      (reference "C411") (unit 1) (value "100p") (footprint "kiwi-SM0402")
    )
    (path "/00000000-0000-0000-0000-00004fe276f4/00000000-0000-0000-0000-000052dba9cd"
      (reference "C412") (unit 1) (value "2.2u") (footprint "kiwi-SM0402")
    )
    (path "/00000000-0000-0000-0000-00004fe276f4/00000000-0000-0000-0000-000054f4e926"
      (reference "C413") (unit 1) (value "10n") (footprint "kiwi-SM0402")
    )
    (path "/00000000-0000-0000-0000-00004fe276f4/00000000-0000-0000-0000-000055075254"
      (reference "C414") (unit 1) (value "470n") (footprint "kiwi-SM0402")
    )
    (path "/00000000-0000-0000-0000-00004fe276f4/00000000-0000-0000-0000-000055276d54"
      (reference "C415") (unit 1) (value "2.2u") (footprint "kiwi-SM0402")
    )
    (path "/00000000-0000-0000-0000-00004fe276f4/00000000-0000-0000-0000-000055276d4e"
      (reference "C416") (unit 1) (value "100p") (footprint "kiwi-SM0402")
    )
    (path "/00000000-0000-0000-0000-00004fe276f4/00000000-0000-0000-0000-0000558b3ecb"
      (reference "C417") (unit 1) (value "10n") (footprint "kiwi-SM0402")
    )
    (path "/00000000-0000-0000-0000-00004fe276f4/00000000-0000-0000-0000-000052be3cd9"
      (reference "C418") (unit 1) (value "1u") (footprint "kiwi-SM0402")
    )
    (path "/00000000-0000-0000-0000-00004fe276f4/00000000-0000-0000-0000-000052be3cdf"
      (reference "C419") (unit 1) (value "1u") (footprint "kiwi-SM0402")
    )
    (path "/00000000-0000-0000-0000-00004fe276f4/00000000-0000-0000-0000-000052be3695"
      (reference "C420") (unit 1) (value "2.2u") (footprint "kiwi-SM0402")
    )
    (path "/00000000-0000-0000-0000-00004fe276f4/00000000-0000-0000-0000-000052be33e5"
      (reference "C421") (unit 1) (value "100n") (footprint "kiwi-SM0402")
    )
    (path "/00000000-0000-0000-0000-00004fe276f4/00000000-0000-0000-0000-000052be5726"
      (reference "C422") (unit 1) (value "100n") (footprint "kiwi-SM0402")
    )
    (path "/00000000-0000-0000-0000-00004fe276f4/00000000-0000-0000-0000-000052be5505"
      (reference "C423") (unit 1) (value "100n") (footprint "kiwi-SM0402")
    )
    (path "/00000000-0000-0000-0000-00004fe276f4/00000000-0000-0000-0000-000052be74ed"
      (reference "C424") (unit 1) (value "100n") (footprint "kiwi-SM0402")
    )
    (path "/00000000-0000-0000-0000-00004fe276f4/00000000-0000-0000-0000-000052be8336"
      (reference "C425") (unit 1) (value "10n") (footprint "kiwi-SM0402")
    )
    (path "/00000000-0000-0000-0000-00004fe276f4/00000000-0000-0000-0000-000052c0e096"
      (reference "C426") (unit 1) (value "1u") (footprint "kiwi-SM0402")
    )
    (path "/00000000-0000-0000-0000-00004fe276f4/00000000-0000-0000-0000-000052c0e237"
      (reference "C427") (unit 1) (value "1u") (footprint "kiwi-SM0402")
    )
    (path "/00000000-0000-0000-0000-00004fe276f4/00000000-0000-0000-0000-000052db6163"
      (reference "C428") (unit 1) (value "1n") (footprint "kiwi-SM0402")
    )
    (path "/00000000-0000-0000-0000-00004fe276f4/00000000-0000-0000-0000-000052db5eef"
      (reference "C429") (unit 1) (value "100n") (footprint "kiwi-SM0402")
    )
    (path "/00000000-0000-0000-0000-00004fe276f4/00000000-0000-0000-0000-000052db66de"
      (reference "C430") (unit 1) (value "1n") (footprint "kiwi-SM0402")
    )
    (path "/00000000-0000-0000-0000-00004fe276f4/00000000-0000-0000-0000-000052db616b"
      (reference "C431") (unit 1) (value "100n") (footprint "kiwi-SM0402")
    )
    (path "/00000000-0000-0000-0000-00004fe276f4/00000000-0000-0000-0000-000052db6171"
      (reference "C432") (unit 1) (value "1n") (footprint "kiwi-SM0402")
    )
    (path "/00000000-0000-0000-0000-00004fe276f4/00000000-0000-0000-0000-000052db615d"
      (reference "C433") (unit 1) (value "100n") (footprint "kiwi-SM0402")
    )
    (path "/00000000-0000-0000-0000-00004fe6399d/00000000-0000-0000-0000-000052c1f7b0"
      (reference "C701") (unit 1) (value "22u") (footprint "kiwi-SM0805")
    )
    (path "/00000000-0000-0000-0000-00004fe6399d/00000000-0000-0000-0000-000052c212d3"
      (reference "C702") (unit 1) (value "100n") (footprint "kiwi-SM0402")
    )
    (path "/00000000-0000-0000-0000-00004fe6399d/00000000-0000-0000-0000-000052c20542"
      (reference "C703") (unit 1) (value "100u") (footprint "kiwi-SM1206")
    )
    (path "/00000000-0000-0000-0000-00004fe6399d/00000000-0000-0000-0000-00005530667d"
      (reference "C704") (unit 1) (value "100n") (footprint "kiwi-SM0402")
    )
    (path "/00000000-0000-0000-0000-00004fe6399d/00000000-0000-0000-0000-000054f3ef39"
      (reference "C705") (unit 1) (value "1u") (footprint "kiwi-SM0402")
    )
    (path "/00000000-0000-0000-0000-00004fe6399d/00000000-0000-0000-0000-000054f3ef49"
      (reference "C706") (unit 1) (value "4.7u") (footprint "kiwi-SM0402")
    )
    (path "/00000000-0000-0000-0000-00004fe6399d/00000000-0000-0000-0000-000052c1f7ce"
      (reference "D701") (unit 1) (value "SR 5A 40V") (footprint "kiwi-DO214_AA")
    )
    (path "/00000000-0000-0000-0000-00004fe27757/00000000-0000-0000-0000-000055283ad9"
      (reference "FID1") (unit 1) (value "FPGA FIDUCIAL") (footprint "kiwi-FIDUCIAL")
    )
    (path "/00000000-0000-0000-0000-00004fe27757/00000000-0000-0000-0000-000055283aeb"
      (reference "FID2") (unit 1) (value "FPGA FIDUCIAL") (footprint "kiwi-FIDUCIAL")
    )
    (path "/00000000-0000-0000-0000-00004fe27757/00000000-0000-0000-0000-00005535adc8"
      (reference "FID3") (unit 1) (value "GLOBAL FIDUCIAL") (footprint "kiwi-FIDUCIAL")
    )
    (path "/00000000-0000-0000-0000-00004fe27757/00000000-0000-0000-0000-000055933351"
      (reference "FID4") (unit 1) (value "GLOBAL FIDUCIAL") (footprint "kiwi-FIDUCIAL")
    )
    (path "/00000000-0000-0000-0000-00004fe27757/00000000-0000-0000-0000-00005593335c"
      (reference "FID5") (unit 1) (value "GLOBAL FIDUCIAL") (footprint "kiwi-FIDUCIAL")
    )
    (path "/00000000-0000-0000-0000-00004fe27757/00000000-0000-0000-0000-000055933363"
      (reference "FID6") (unit 1) (value "GLOBAL FIDUCIAL") (footprint "kiwi-FIDUCIAL")
    )
    (path "/00000000-0000-0000-0000-00004fe276d1/00000000-0000-0000-0000-000052b6850a"
      (reference "FL101") (unit 1) (value "SAW L1") (footprint "kiwi-SAW")
    )
    (path "/00000000-0000-0000-0000-00004fe27757/00000000-0000-0000-0000-000055b966f3"
      (reference "GFX1") (unit 1) (value "LOGO") (footprint "kiwi-KIWI_10MM")
    )
    (path "/00000000-0000-0000-0000-00004fe27757/00000000-0000-0000-0000-000055b99ff3"
      (reference "GFX2") (unit 1) (value "OSHW") (footprint "kiwi-OSHW_6MM")
    )
    (path "/00000000-0000-0000-0000-00004fe276f4/00000000-0000-0000-0000-0000551daba2"
      (reference "J1") (unit 1) (value "TB_2") (footprint "kiwi-TB_2P_2_54MM")
    )
    (path "/00000000-0000-0000-0000-00004fe276f4/00000000-0000-0000-0000-0000557216b6"
      (reference "J2") (unit 1) (value "SMA") (footprint "kiwi-SMA_OPL_EM")
    )
    (path "/00000000-0000-0000-0000-00004fe276d1/00000000-0000-0000-0000-000052c0a14e"
      (reference "J3") (unit 1) (value "SMA") (footprint "kiwi-SMA_OPL_EM")
    )
    (path "/00000000-0000-0000-0000-00004fe276d1/00000000-0000-0000-0000-000052c3a6e5"
      (reference "J4") (unit 1) (value "DNL U.FL") (footprint "kiwi-U.FL")
    )
    (path "/00000000-0000-0000-0000-00004fe276f4/00000000-0000-0000-0000-0000558b48b0"
      (reference "J5") (unit 1) (value "DNL U.FL") (footprint "kiwi-U.FL")
    )
    (path "/00000000-0000-0000-0000-00004fe27749/00000000-0000-0000-0000-000056c81b61"
      (reference "J6") (unit 1) (value "POWER JACK 2.1MM") (footprint "kiwi-JACK_2_1MM_TH")
    )
    (path "/00000000-0000-0000-0000-00004fe276d1/00000000-0000-0000-0000-000052b6711c"
      (reference "L101") (unit 1) (value "39nH") (footprint "kiwi-SM0402")
    )
    (path "/00000000-0000-0000-0000-00004fe276d1/00000000-0000-0000-0000-000054e99009"
      (reference "L102") (unit 1) (value "FB 600Z") (footprint "kiwi-SM0402")
    )
    (path "/00000000-0000-0000-0000-00004fe276d1/00000000-0000-0000-0000-0000551bc541"
      (reference "L103") (unit 1) (value "FB 600Z") (footprint "kiwi-SM0402")
    )
    (path "/00000000-0000-0000-0000-00004fe276d1/00000000-0000-0000-0000-00005546f958"
      (reference "L104") (unit 1) (value "FB 600Z") (footprint "kiwi-SM0402")
    )
    (path "/00000000-0000-0000-0000-00004fe276f4/00000000-0000-0000-0000-000052ba03bc"
      (reference "L401") (unit 1) (value "330nH") (footprint "kiwi-SM0402")
    )
    (path "/00000000-0000-0000-0000-00004fe276f4/00000000-0000-0000-0000-000052ba0416"
      (reference "L402") (unit 1) (value "270nH") (footprint "kiwi-SM0402")
    )
    (path "/00000000-0000-0000-0000-00004fe276f4/00000000-0000-0000-0000-000054f813ac"
      (reference "L403") (unit 1) (value "150nH") (footprint "kiwi-SM0402")
    )
    (path "/00000000-0000-0000-0000-00004fe276f4/00000000-0000-0000-0000-000052ba0425"
      (reference "L404") (unit 1) (value "330nH") (footprint "kiwi-SM0402")
    )
    (path "/00000000-0000-0000-0000-00004fe276f4/00000000-0000-0000-0000-000052db3386"
      (reference "L405") (unit 1) (value "150nH") (footprint "kiwi-SM0402")
    )
    (path "/00000000-0000-0000-0000-00004fe276f4/00000000-0000-0000-0000-000052db3802"
      (reference "L406") (unit 1) (value "150nH") (footprint "kiwi-SM0402")
    )
    (path "/00000000-0000-0000-0000-00004fe276f4/00000000-0000-0000-0000-000054e99b0f"
      (reference "L407") (unit 1) (value "FB 600Z") (footprint "kiwi-SM0402")
    )
    (path "/00000000-0000-0000-0000-00004fe276f4/00000000-0000-0000-0000-00005546fddc"
      (reference "L408") (unit 1) (value "FB 600Z") (footprint "kiwi-SM0402")
    )
    (path "/00000000-0000-0000-0000-00004fe6399d/00000000-0000-0000-0000-000052c1f7bf"
      (reference "L701") (unit 1) (value "1uH 3.7A") (footprint "kiwi-INDUCTOR_4x4")
    )
    (path "/00000000-0000-0000-0000-00004fe276d1/00000000-0000-0000-0000-0000551526c4"
      (reference "R101") (unit 1) (value "100R") (footprint "kiwi-SM0402")
    )
    (path "/00000000-0000-0000-0000-00004fe276d1/00000000-0000-0000-0000-0000551526be"
      (reference "R102") (unit 1) (value "100R") (footprint "kiwi-SM0402")
    )
    (path "/00000000-0000-0000-0000-00004fe276d1/00000000-0000-0000-0000-000055152680"
      (reference "R103") (unit 1) (value "100R") (footprint "kiwi-SM0402")
    )
    (path "/00000000-0000-0000-0000-00004fe27749/00000000-0000-0000-0000-000052c33d21"
      (reference "R303") (unit 1) (value "5K6") (footprint "kiwi-SM0402")
    )
    (path "/00000000-0000-0000-0000-00004fe27749/00000000-0000-0000-0000-000054f3bc56"
      (reference "R304") (unit 1) (value "5K6") (footprint "kiwi-SM0402")
    )
    (path "/00000000-0000-0000-0000-00004fe27749/00000000-0000-0000-0000-000052c33cb1"
      (reference "R305") (unit 1) (value "5K6") (footprint "kiwi-SM0402")
    )
    (path "/00000000-0000-0000-0000-00004fe276f4/00000000-0000-0000-0000-000054f3876a"
      (reference "R401") (unit 1) (value "100R") (footprint "kiwi-SM0402")
    )
    (path "/00000000-0000-0000-0000-00004fe276f4/00000000-0000-0000-0000-00005503a1ab"
      (reference "R402") (unit 1) (value "66R5") (footprint "kiwi-SM0402")
    )
    (path "/00000000-0000-0000-0000-00004fe276f4/00000000-0000-0000-0000-00005503a19b"
      (reference "R403") (unit 1) (value "28R7") (footprint "kiwi-SM0402")
    )
    (path "/00000000-0000-0000-0000-00004fe276f4/00000000-0000-0000-0000-00005524a1a2"
      (reference "R404") (unit 1) (value "100R") (footprint "kiwi-RNET_CAY16_J8")
    )
    (path "/00000000-0000-0000-0000-00004fe276f4/00000000-0000-0000-0000-00005524a6f7"
      (reference "R405") (unit 1) (value "100R") (footprint "kiwi-RNET_CAY16_J8")
    )
    (path "/00000000-0000-0000-0000-00004fe276f4/00000000-0000-0000-0000-000055369b09"
      (reference "R406") (unit 1) (value "10K") (footprint "kiwi-SM0402")
    )
    (path "/00000000-0000-0000-0000-00004fe276f4/00000000-0000-0000-0000-000055369afa"
      (reference "R407") (unit 1) (value "DNL") (footprint "kiwi-SM0402")
    )
    (path "/00000000-0000-0000-0000-00004fe276f4/00000000-0000-0000-0000-000055369ada"
      (reference "R408") (unit 1) (value "0R") (footprint "kiwi-SM0402")
    )
    (path "/00000000-0000-0000-0000-00004fe276f4/00000000-0000-0000-0000-000055369b10"
      (reference "R409") (unit 1) (value "10K") (footprint "kiwi-SM0402")
    )
    (path "/00000000-0000-0000-0000-00004fe276f4/00000000-0000-0000-0000-00005536c020"
      (reference "R410") (unit 1) (value "10K") (footprint "kiwi-SM0402")
    )
    (path "/00000000-0000-0000-0000-00004fe6399d/00000000-0000-0000-0000-000052c1f7dd"
      (reference "R701") (unit 1) (value "10R") (footprint "kiwi-SM0402")
    )
    (path "/00000000-0000-0000-0000-00004fe6399d/00000000-0000-0000-0000-000052c200d6"
      (reference "R702") (unit 1) (value "6K65") (footprint "kiwi-SM0402")
    )
    (path "/00000000-0000-0000-0000-00004fe6399d/00000000-0000-0000-0000-000052c20548"
      (reference "R703") (unit 1) (value "10K") (footprint "kiwi-SM0402")
    )
    (path "/00000000-0000-0000-0000-00004fe27749/00000000-0000-0000-0000-000056c7c521"
      (reference "T301") (unit 1) (value "CMC 500uH 1A") (footprint "kiwi-CMC")
    )
    (path "/00000000-0000-0000-0000-00004fe276d1/00000000-0000-0000-0000-0000556bfe21"
      (reference "TP101") (unit 1) (value "TEST_POINT") (footprint "kiwi-TP_600")
    )
    (path "/00000000-0000-0000-0000-00004fe276d1/00000000-0000-0000-0000-0000556bfc61"
      (reference "TP102") (unit 1) (value "TEST_POINT") (footprint "kiwi-TP_VIA_1250")
    )
    (path "/00000000-0000-0000-0000-00004fe276d1/00000000-0000-0000-0000-0000556bfce0"
      (reference "TP103") (unit 1) (value "TEST_POINT") (footprint "kiwi-TP_VIA_1250")
    )
    (path "/00000000-0000-0000-0000-00004fe276d1/00000000-0000-0000-0000-0000556bfd7e"
      (reference "TP104") (unit 1) (value "TEST_POINT") (footprint "kiwi-TP_VIA_1250")
    )
    (path "/00000000-0000-0000-0000-00004fe276d1/00000000-0000-0000-0000-0000556c104d"
      (reference "TP105") (unit 1) (value "TEST_POINT") (footprint "kiwi-TP_600")
    )
    (path "/00000000-0000-0000-0000-00004fe27749/00000000-0000-0000-0000-000055416156"
      (reference "TP301") (unit 1) (value "TEST_POINT") (footprint "kiwi-TP_VIA_600")
    )
    (path "/00000000-0000-0000-0000-00004fe276f4/00000000-0000-0000-0000-0000556bf640"
      (reference "TP401") (unit 1) (value "TEST_POINT") (footprint "kiwi-TP_600")
    )
    (path "/00000000-0000-0000-0000-00004fe276f4/00000000-0000-0000-0000-0000556c0b59"
      (reference "TP402") (unit 1) (value "TEST_POINT") (footprint "kiwi-TP_VIA_600")
    )
    (path "/00000000-0000-0000-0000-00004fe6399d/00000000-0000-0000-0000-0000556d0342"
      (reference "TP701") (unit 1) (value "TEST_POINT") (footprint "kiwi-TP_600")
    )
    (path "/00000000-0000-0000-0000-00004fe6399d/00000000-0000-0000-0000-0000556d03db"
      (reference "TP702") (unit 1) (value "TEST_POINT") (footprint "kiwi-TP_600")
    )
    (path "/00000000-0000-0000-0000-00004fe27749/00000000-0000-0000-0000-000054e3fba2"
      (reference "U1") (unit 1) (value "Artix-7 A35") (footprint "kiwi-FTG256")
    )
    (path "/00000000-0000-0000-0000-00004fe27749/00000000-0000-0000-0000-000054e4048f"
      (reference "U1") (unit 2) (value "Artix-7 A35") (footprint "kiwi-FTG256")
    )
    (path "/00000000-0000-0000-0000-00004fe27757/00000000-0000-0000-0000-000054e45023"
      (reference "U1") (unit 3) (value "Artix-7 A35") (footprint "kiwi-FTG256")
    )
    (path "/00000000-0000-0000-0000-00004fe27757/00000000-0000-0000-0000-000054e51cb6"
      (reference "U1") (unit 4) (value "Artix-7 A35") (footprint "kiwi-FTG256")
    )
    (path "/00000000-0000-0000-0000-00004fe27757/00000000-0000-0000-0000-000054e52136"
      (reference "U1") (unit 5) (value "Artix-7 A35") (footprint "kiwi-FTG256")
    )
    (path "/00000000-0000-0000-0000-00004fe2765e/00000000-0000-0000-0000-000054e41e0c"
      (reference "U1") (unit 6) (value "Artix-7 A35") (footprint "kiwi-FTG256")
    )
    (path "/00000000-0000-0000-0000-00004fe2765e/00000000-0000-0000-0000-000054e41dee"
      (reference "U1") (unit 7) (value "Artix-7 A35") (footprint "kiwi-FTG256")
    )
    (path "/00000000-0000-0000-0000-00004fe276d1/00000000-0000-0000-0000-000052b4ca12"
      (reference "U101") (unit 1) (value "SE4150L") (footprint "kiwi-QFN24")
    )
    (path "/00000000-0000-0000-0000-00004fe276d1/00000000-0000-0000-0000-0000552ec3e7"
      (reference "U104") (unit 1) (value "LP5907 3.3V 250mA") (footprint "kiwi-SOT23_5")
    )
    (path "/00000000-0000-0000-0000-00004fe27749/00000000-0000-0000-0000-000052c32cb8"
      (reference "U301") (unit 1) (value "EEPROM 32Kx8") (footprint "kiwi-TSSOP8")
    )
    (path "/00000000-0000-0000-0000-00004fe276f4/00000000-0000-0000-0000-000052b4b87f"
      (reference "U401") (unit 1) (value "LTC2248") (footprint "kiwi-QFN32")
    )
    (path "/00000000-0000-0000-0000-00004fe276f4/00000000-0000-0000-0000-0000558b3787"
      (reference "U402") (unit 1) (value "66.6666 MHz") (footprint "kiwi-XO")
    )
    (path "/00000000-0000-0000-0000-00004fe276f4/00000000-0000-0000-0000-0000558b377f"
      (reference "U403") (unit 1) (value "NC7SZ125") (footprint "kiwi-SC70_5")
    )
    (path "/00000000-0000-0000-0000-00004fe276f4/00000000-0000-0000-0000-0000552ebc64"
      (reference "U404") (unit 1) (value "LP5907 3.3V 250mA") (footprint "kiwi-SOT23_5")
    )
    (path "/00000000-0000-0000-0000-00004fe276f4/00000000-0000-0000-0000-000052db2f04"
      (reference "U405") (unit 1) (value "LTC6401-20") (footprint "kiwi-QFN16")
    )
    (path "/00000000-0000-0000-0000-00004fe276f4/00000000-0000-0000-0000-0000558b375e"
      (reference "U406") (unit 1) (value "NC7SZ125") (footprint "kiwi-SC70_5")
    )
    (path "/00000000-0000-0000-0000-00004fe6399d/00000000-0000-0000-0000-000052c1ee3d"
      (reference "U701") (unit 1) (value "LMR10530Y 1.0V 3A") (footprint "kiwi-WSON10")
    )
    (path "/00000000-0000-0000-0000-00004fe6399d/00000000-0000-0000-0000-0000552ec7c4"
      (reference "U702") (unit 1) (value "LP5907 1.8V 250mA") (footprint "kiwi-SOT23_5")
    )
    (path "/00000000-0000-0000-0000-00004fe276d1/00000000-0000-0000-0000-000052b789f8"
      (reference "X101") (unit 1) (value "16.368 MHz") (footprint "kiwi-TCXO")
    )
    (path "/00000000-0000-0000-0000-00004fe276f4/00000000-0000-0000-0000-000055a826d1"
      (reference "Z401") (unit 1) (value "TVS 3.3V") (footprint "kiwi-SOD323")
    )
    (path "/00000000-0000-0000-0000-00004fe276f4/00000000-0000-0000-0000-00005535c51e"
      (reference "Z402") (unit 1) (value "TVS 3.3V") (footprint "kiwi-SOD323")
    )
    (path "/00000000-0000-0000-0000-00004fe27749/00000000-0000-0000-0000-0000551f2993"
      (reference "ZB1") (unit 1) (value "HEADER 13x2") (footprint "kiwi-BEAGLEBONE_BLACK")
    )
    (path "/00000000-0000-0000-0000-00004fe276d1/00000000-0000-0000-0000-0000552dc79c"
      (reference "ZR101") (unit 1) (value "RF_SHIELD 29x19") (footprint "kiwi-RF_SHIELD_29x19_16P")
    )
    (path "/00000000-0000-0000-0000-00004fe276d1/00000000-0000-0000-0000-0000551bb4c7"
      (reference "ZR102") (unit 1) (value "RF_SHIELD_COVER 29x19") (footprint "kiwi-RF_SHIELD_COVER")
    )
    (path "/00000000-0000-0000-0000-00004fe276f4/00000000-0000-0000-0000-00005521fbb1"
      (reference "ZR401") (unit 1) (value "RF_SHIELD 29x19") (footprint "kiwi-RF_SHIELD_29x19")
    )
    (path "/00000000-0000-0000-0000-00004fe276f4/00000000-0000-0000-0000-00005502725d"
      (reference "ZR402") (unit 1) (value "RF_SHIELD_COVER 29x19") (footprint "kiwi-RF_SHIELD_COVER")
    )
  )
)
