  0
SECTION
  2
HEADER
  9
$ACADVER
  1
AC1014
  9
$HANDSEED
  5
FFFF
  9
$MEASUREMENT
 70
     1
  0
ENDSEC
  0
SECTION
  2
TABLES
  0
TABLE
  2
VPORT
  5
8
330
0
100
AcDbSymbolTable
 70
     4
  0
VPORT
  5
2E
330
8
100
AcDbSymbolTableRecord
100
AcDbViewportTableRecord
  2
*ACTIVE
 70
     0
 10
0.0
 20
0.0
 11
1.0
 21
1.0
 12
210.0
 22
148.5
 13
0.0
 23
0.0
 14
10.0
 24
10.0
 15
10.0
 25
10.0
 16
0.0
 26
0.0
 36
1.0
 17
0.0
 27
0.0
 37
0.0
 40
341.0
 41
1.24
 42
50.0
 43
0.0
 44
0.0
 50
0.0
 51
0.0
 71
     0
 72
   100
 73
     1
 74
     3
 75
     0
 76
     0
 77
     0
 78
     0
  0
ENDTAB
  0
TABLE
  2
LTYPE
  5
5
330
0
100
AcDbSymbolTable
 70
     1
  0
LTYPE
  5
14
330
5
100
AcDbSymbolTableRecord
100
AcDbLinetypeTableRecord
  2
BYBLOCK
 70
     0
  3

 72
    65
 73
     0
 40
0.0
  0
LTYPE
  5
15
330
5
100
AcDbSymbolTableRecord
100
AcDbLinetypeTableRecord
  2
BYLAYER
 70
     0
  3

 72
    65
 73
     0
 40
0.0
  0
LTYPE
  5
16
330
5
100
AcDbSymbolTableRecord
100
AcDbLinetypeTableRecord
  2
CONTINUOUS
 70
     0
  3
Solid line
 72
    65
 73
     0
 40
0.0
  0
ENDTAB
  0
TABLE
  2
LAYER
  5
2
100
AcDbSymbolTable
 70
2
  0
LAYER
  5
50
100
AcDbSymbolTableRecord
100
AcDbLayerTableRecord
  2
0
 70
0
  6
CONTINUOUS
  0
LAYER
  5
51
100
AcDbSymbolTableRecord
100
AcDbLayerTableRecord
  2
Page_1
 70
0
  6
CONTINUOUS
  0
ENDTAB
  0
TABLE
  2
STYLE
  5
3
330
0
100
AcDbSymbolTable
 70
     1
  0
STYLE
  5
11
330
3
100
AcDbSymbolTableRecord
100
AcDbTextStyleTableRecord
  2
STANDARD
 70
     0
 40
0.0
 41
1.0
 50
0.0
 71
     0
 42
2.5
  3
txt
  4

  0
ENDTAB
  0
TABLE
  2
VIEW
  5
6
330
0
100
AcDbSymbolTable
 70
     0
  0
ENDTAB
  0
TABLE
  2
UCS
  5
7
330
0
100
AcDbSymbolTable
 70
     0
  0
ENDTAB
  0
TABLE
  2
APPID
  5
9
330
0
100
AcDbSymbolTable
 70
     2
  0
APPID
  5
12
330
9
100
AcDbSymbolTableRecord
100
AcDbRegAppTableRecord
  2
ACAD
 70
     0
  0
ENDTAB
  0
TABLE
  2
DIMSTYLE
  5
A
330
0
100
AcDbSymbolTable
 70
     1
  0
DIMSTYLE
105
27
330
A
100
AcDbSymbolTableRecord
100
AcDbDimStyleTableRecord
  2
ISO-25
 70
     0
  3

  4

  5

  6

  7

 40
1.0
 41
2.5
 42
0.625
 43
3.75
 44
1.25
 45
0.0
 46
0.0
 47
0.0
 48
0.0
140
2.5
141
2.5
142
0.0
143
0.03937007874016
144
1.0
145
0.0
146
1.0
147
0.625
 71
     0
 72
     0
 73
     0
 74
     0
 75
     0
 76
     0
 77
     1
 78
     8
170
     0
171
     3
172
     1
173
     0
174
     0
175
     0
176
     0
177
     0
178
     0
270
     2
271
     2
272
     2
273
     2
274
     3
340
11
275
     0
280
     0
281
     0
282
     0
283
     0
284
     8
285
     0
286
     0
287
     3
288
     0
  0
ENDTAB
  0
TABLE
  2
BLOCK_RECORD
  5
1
330
0
100
AcDbSymbolTable
 70
     1
  0
BLOCK_RECORD
  5
1F
330
1
100
AcDbSymbolTableRecord
100
AcDbBlockTableRecord
  2
*MODEL_SPACE
  0
BLOCK_RECORD
  5
1B
330
1
100
AcDbSymbolTableRecord
100
AcDbBlockTableRecord
  2
*PAPER_SPACE
  0
ENDTAB
  0
ENDSEC
  0
SECTION
  2
BLOCKS
  0
BLOCK
  5
20
330
1F
100
AcDbEntity
  8
0
100
AcDbBlockBegin
  2
*MODEL_SPACE
 70
     0
 10
0.0
 20
0.0
 30
0.0
  3
*MODEL_SPACE
  1

  0
ENDBLK
  5
21
330
1F
100
AcDbEntity
  8
0
100
AcDbBlockEnd
  0
BLOCK
  5
1C
330
1B
100
AcDbEntity
 67
     1
  8
0
100
AcDbBlockBegin
  2
*PAPER_SPACE
  1

  0
ENDBLK
  5
1D
330
1B
100
AcDbEntity
 67
     1
  8
0
100
AcDbBlockEnd
  0
ENDSEC
  0
SECTION
  2
ENTITIES
  0
LWPOLYLINE
  5
100
100
AcDbEntity
  8
Page_1
 62
7
100
AcDbPolyline
 90
21
 70
1
 10
31.144340
 20
35.505381
 30
0.0
 10
31.356006
 20
35.484214
 30
0.0
 10
31.525339
 20
35.399548
 30
0.0
 10
31.652339
 20
35.272548
 30
0.0
 10
31.758172
 20
35.103215
 30
0.0
 10
31.800505
 20
34.912716
 30
0.0
 10
31.779338
 20
34.722216
 30
0.0
 10
31.694672
 20
34.531717
 30
0.0
 10
31.610006
 20
34.383551
 30
0.0
 10
31.419506
 20
34.277718
 30
0.0
 10
31.250173
 20
34.235384
 30
0.0
 10
31.059674
 20
34.235384
 30
0.0
 10
30.869174
 20
34.277718
 30
0.0
 10
30.721008
 20
34.383551
 30
0.0
 10
30.615175
 20
34.531717
 30
0.0
 10
30.530508
 20
34.722216
 30
0.0
 10
30.509342
 20
34.912716
 30
0.0
 10
30.551675
 20
35.103215
 30
0.0
 10
30.657508
 20
35.272548
 30
0.0
 10
30.784508
 20
35.399548
 30
0.0
 10
30.975007
 20
35.484214
 30
0.0
  0
LWPOLYLINE
  5
101
100
AcDbEntity
  8
Page_1
 62
7
100
AcDbPolyline
 90
21
 70
1
 10
51.167956
 20
35.505381
 30
0.0
 10
51.337288
 20
35.484214
 30
0.0
 10
51.506621
 20
35.399548
 30
0.0
 10
51.675954
 20
35.272548
 30
0.0
 10
51.739454
 20
35.103215
 30
0.0
 10
51.802954
 20
34.912716
 30
0.0
 10
51.760621
 20
34.722216
 30
0.0
 10
51.718287
 20
34.531717
 30
0.0
 10
51.591288
 20
34.383551
 30
0.0
 10
51.443122
 20
34.277718
 30
0.0
 10
51.252622
 20
34.235384
 30
0.0
 10
51.062123
 20
34.235384
 30
0.0
 10
50.871623
 20
34.277718
 30
0.0
 10
50.723457
 20
34.383551
 30
0.0
 10
50.596457
 20
34.531717
 30
0.0
 10
50.532957
 20
34.722216
 30
0.0
 10
50.532957
 20
34.912716
 30
0.0
 10
50.554124
 20
35.103215
 30
0.0
 10
50.659957
 20
35.272548
 30
0.0
 10
50.808123
 20
35.399548
 30
0.0
 10
50.956289
 20
35.484214
 30
0.0
  0
LWPOLYLINE
  5
102
100
AcDbEntity
  8
Page_1
 62
7
100
AcDbPolyline
 90
21
 70
1
 10
51.167956
 20
12.730106
 30
0.0
 10
51.337288
 20
12.666606
 30
0.0
 10
51.506621
 20
12.603106
 30
0.0
 10
51.675954
 20
12.476107
 30
0.0
 10
51.739454
 20
12.306774
 30
0.0
 10
51.802954
 20
12.116274
 30
0.0
 10
51.760621
 20
11.925775
 30
0.0
 10
51.718287
 20
11.756442
 30
0.0
 10
51.591288
 20
11.608276
 30
0.0
 10
51.443122
 20
11.502442
 30
0.0
 10
51.252622
 20
11.417776
 30
0.0
 10
51.062123
 20
11.417776
 30
0.0
 10
50.871623
 20
11.502442
 30
0.0
 10
50.723457
 20
11.608276
 30
0.0
 10
50.596457
 20
11.756442
 30
0.0
 10
50.532957
 20
11.925775
 30
0.0
 10
50.532957
 20
12.116274
 30
0.0
 10
50.554124
 20
12.306774
 30
0.0
 10
50.659957
 20
12.476107
 30
0.0
 10
50.808123
 20
12.603106
 30
0.0
 10
50.956289
 20
12.666606
 30
0.0
  0
LWPOLYLINE
  5
103
100
AcDbEntity
  8
Page_1
 62
7
100
AcDbPolyline
 90
21
 70
1
 10
31.144340
 20
12.730106
 30
0.0
 10
31.356006
 20
12.666606
 30
0.0
 10
31.525339
 20
12.603106
 30
0.0
 10
31.652339
 20
12.476107
 30
0.0
 10
31.758172
 20
12.306774
 30
0.0
 10
31.800505
 20
12.116274
 30
0.0
 10
31.779338
 20
11.925775
 30
0.0
 10
31.694672
 20
11.756442
 30
0.0
 10
31.610006
 20
11.608276
 30
0.0
 10
31.419506
 20
11.502442
 30
0.0
 10
31.250173
 20
11.417776
 30
0.0
 10
31.059674
 20
11.417776
 30
0.0
 10
30.869174
 20
11.502442
 30
0.0
 10
30.721008
 20
11.608276
 30
0.0
 10
30.615175
 20
11.756442
 30
0.0
 10
30.530508
 20
11.925775
 30
0.0
 10
30.509342
 20
12.116274
 30
0.0
 10
30.551675
 20
12.306774
 30
0.0
 10
30.657508
 20
12.476107
 30
0.0
 10
30.784508
 20
12.603106
 30
0.0
 10
30.975007
 20
12.666606
 30
0.0
  0
LWPOLYLINE
  5
104
100
AcDbEntity
  8
Page_1
 62
7
100
AcDbPolyline
 90
82
 70
1
 10
63.910256
 20
13.047605
 30
0.0
 10
63.910256
 20
33.896719
 30
0.0
 10
63.867923
 20
34.235384
 30
0.0
 10
63.783257
 20
34.574050
 30
0.0
 10
63.635090
 20
34.870383
 30
0.0
 10
63.423424
 20
35.145549
 30
0.0
 10
63.190591
 20
35.399548
 30
0.0
 10
62.915426
 20
35.590048
 30
0.0
 10
62.597926
 20
35.738214
 30
0.0
 10
62.259261
 20
35.801714
 30
0.0
 10
61.899428
 20
35.865214
 30
0.0
 10
59.126602
 20
36.246213
 30
0.0
 10
56.374942
 20
36.563712
 30
0.0
 10
53.602116
 20
36.817711
 30
0.0
 10
50.808123
 20
37.050544
 30
0.0
 10
48.014130
 20
37.198710
 30
0.0
 10
45.220137
 20
37.304543
 30
0.0
 10
42.426145
 20
37.325710
 30
0.0
 10
42.426145
 20
34.828049
 30
0.0
 10
42.404978
 20
34.574050
 30
0.0
 10
42.320312
 20
34.320051
 30
0.0
 10
42.172145
 20
34.087218
 30
0.0
 10
41.981646
 20
33.875552
 30
0.0
 10
41.791146
 20
33.727386
 30
0.0
 10
41.558313
 20
33.621553
 30
0.0
 10
41.283148
 20
33.579219
 30
0.0
 10
41.029148
 20
33.579219
 30
0.0
 10
40.775149
 20
33.621553
 30
0.0
 10
40.521149
 20
33.727386
 30
0.0
 10
40.309483
 20
33.875552
 30
0.0
 10
40.140150
 20
34.087218
 30
0.0
 10
40.013151
 20
34.320051
 30
0.0
 10
39.907318
 20
34.574050
 30
0.0
 10
39.886151
 20
34.828049
 30
0.0
 10
39.886151
 20
37.325710
 30
0.0
 10
37.070992
 20
37.262210
 30
0.0
 10
34.234666
 20
37.135210
 30
0.0
 10
31.440673
 20
36.944711
 30
0.0
 10
28.625513
 20
36.690711
 30
0.0
 10
25.831520
 20
36.415545
 30
0.0
 10
23.037527
 20
36.055713
 30
0.0
 10
20.243535
 20
35.632381
 30
0.0
 10
20.243535
 20
11.290776
 30
0.0
 10
23.037527
 20
10.888611
 30
0.0
 10
25.831520
 20
10.528778
 30
0.0
 10
28.625513
 20
10.232446
 30
0.0
 10
31.440673
 20
9.999613
 30
0.0
 10
34.234666
 20
9.809113
 30
0.0
 10
37.070992
 20
9.682114
 30
0.0
 10
39.886151
 20
9.618614
 30
0.0
 10
39.886151
 20
12.116274
 30
0.0
 10
39.907318
 20
12.370274
 30
0.0
 10
40.013151
 20
12.624273
 30
0.0
 10
40.140150
 20
12.857106
 30
0.0
 10
40.309483
 20
13.047605
 30
0.0
 10
40.521149
 20
13.195771
 30
0.0
 10
40.775149
 20
13.301605
 30
0.0
 10
41.029148
 20
13.386271
 30
0.0
 10
41.283148
 20
13.386271
 30
0.0
 10
41.558313
 20
13.301605
 30
0.0
 10
41.791146
 20
13.195771
 30
0.0
 10
41.981646
 20
13.047605
 30
0.0
 10
42.172145
 20
12.857106
 30
0.0
 10
42.320312
 20
12.624273
 30
0.0
 10
42.404978
 20
12.370274
 30
0.0
 10
42.426145
 20
12.116274
 30
0.0
 10
42.426145
 20
9.597447
 30
0.0
 10
45.220137
 20
9.639781
 30
0.0
 10
48.014130
 20
9.745614
 30
0.0
 10
50.808123
 20
9.893780
 30
0.0
 10
53.602116
 20
10.105446
 30
0.0
 10
56.374942
 20
10.359445
 30
0.0
 10
59.126602
 20
10.698111
 30
0.0
 10
61.899428
 20
11.079110
 30
0.0
 10
62.259261
 20
11.121443
 30
0.0
 10
62.597926
 20
11.206110
 30
0.0
 10
62.915426
 20
11.354276
 30
0.0
 10
63.190591
 20
11.544776
 30
0.0
 10
63.423424
 20
11.777608
 30
0.0
 10
63.635090
 20
12.052774
 30
0.0
 10
63.783257
 20
12.370274
 30
0.0
 10
63.867923
 20
12.687773
 30
0.0
  0
LWPOLYLINE
  5
105
100
AcDbEntity
  8
Page_1
 62
7
100
AcDbPolyline
 90
2
 70
0
 10
3.225578
 20
33.642719
 30
0.0
 10
3.225578
 20
35.632381
 30
0.0
  0
LWPOLYLINE
  5
106
100
AcDbEntity
  8
Page_1
 62
7
100
AcDbPolyline
 90
6
 70
1
 10
3.543077
 20
33.642719
 30
0.0
 10
3.225578
 20
35.632381
 30
0.0
 10
2.929246
 20
33.642719
 30
0.0
 10
3.543077
 20
33.642719
 30
0.0
 10
3.225578
 20
35.632381
 30
0.0
 10
2.929246
 20
33.642719
 30
0.0
  0
LWPOLYLINE
  5
107
100
AcDbEntity
  8
Page_1
 62
7
100
AcDbPolyline
 90
2
 70
0
 10
3.225578
 20
13.301605
 30
0.0
 10
3.225578
 20
11.290776
 30
0.0
  0
LWPOLYLINE
  5
108
100
AcDbEntity
  8
Page_1
 62
7
100
AcDbPolyline
 90
6
 70
1
 10
2.929246
 20
13.301605
 30
0.0
 10
3.225578
 20
11.290776
 30
0.0
 10
3.543077
 20
13.301605
 30
0.0
 10
2.929246
 20
13.301605
 30
0.0
 10
3.225578
 20
11.290776
 30
0.0
 10
3.543077
 20
13.301605
 30
0.0
  0
LWPOLYLINE
  5
109
100
AcDbEntity
  8
Page_1
 62
7
100
AcDbPolyline
 90
2
 70
0
 10
3.225578
 20
33.642719
 30
0.0
 10
3.225578
 20
26.763570
 30
0.0
  0
LWPOLYLINE
  5
10a
100
AcDbEntity
  8
Page_1
 62
7
100
AcDbPolyline
 90
2
 70
0
 10
3.225578
 20
20.180754
 30
0.0
 10
3.225578
 20
13.301605
 30
0.0
  0
LWPOLYLINE
  5
10b
100
AcDbEntity
  8
Page_1
 62
7
100
AcDbPolyline
 90
2
 70
0
 10
19.227537
 20
35.632381
 30
0.0
 10
0.050586
 20
35.632381
 30
0.0
  0
LWPOLYLINE
  5
10c
100
AcDbEntity
  8
Page_1
 62
7
100
AcDbPolyline
 90
2
 70
0
 10
19.227537
 20
11.290776
 30
0.0
 10
0.050586
 20
11.290776
 30
0.0
  0
LWPOLYLINE
  5
10d
100
AcDbEntity
  8
Page_1
 62
7
100
AcDbPolyline
 90
2
 70
0
 10
44.436973
 20
43.273528
 30
0.0
 10
42.426145
 20
43.273528
 30
0.0
  0
LWPOLYLINE
  5
10e
100
AcDbEntity
  8
Page_1
 62
7
100
AcDbPolyline
 90
6
 70
1
 10
44.436973
 20
43.591027
 30
0.0
 10
42.426145
 20
43.273528
 30
0.0
 10
44.436973
 20
42.977195
 30
0.0
 10
44.436973
 20
43.591027
 30
0.0
 10
42.426145
 20
43.273528
 30
0.0
 10
44.436973
 20
42.977195
 30
0.0
  0
LWPOLYLINE
  5
10f
100
AcDbEntity
  8
Page_1
 62
7
100
AcDbPolyline
 90
2
 70
0
 10
37.896489
 20
43.273528
 30
0.0
 10
39.886151
 20
43.273528
 30
0.0
  0
LWPOLYLINE
  5
110
100
AcDbEntity
  8
Page_1
 62
7
100
AcDbPolyline
 90
6
 70
1
 10
37.896489
 20
42.977195
 30
0.0
 10
39.886151
 20
43.273528
 30
0.0
 10
37.896489
 20
43.591027
 30
0.0
 10
37.896489
 20
42.977195
 30
0.0
 10
39.886151
 20
43.273528
 30
0.0
 10
37.896489
 20
43.591027
 30
0.0
  0
LWPOLYLINE
  5
111
100
AcDbEntity
  8
Page_1
 62
7
100
AcDbPolyline
 90
2
 70
0
 10
44.436973
 20
43.273528
 30
0.0
 10
46.405468
 20
43.273528
 30
0.0
  0
LWPOLYLINE
  5
112
100
AcDbEntity
  8
Page_1
 62
7
100
AcDbPolyline
 90
2
 70
0
 10
37.896489
 20
43.273528
 30
0.0
 10
35.885661
 20
43.273528
 30
0.0
  0
LWPOLYLINE
  5
113
100
AcDbEntity
  8
Page_1
 62
7
100
AcDbPolyline
 90
2
 70
0
 10
42.426145
 20
38.320541
 30
0.0
 10
42.426145
 20
46.448520
 30
0.0
  0
LWPOLYLINE
  5
114
100
AcDbEntity
  8
Page_1
 62
7
100
AcDbPolyline
 90
2
 70
0
 10
39.886151
 20
38.320541
 30
0.0
 10
39.886151
 20
46.448520
 30
0.0
  0
LWPOLYLINE
  5
115
100
AcDbEntity
  8
Page_1
 62
7
100
AcDbPolyline
 90
2
 70
0
 10
22.254363
 20
43.273528
 30
0.0
 10
20.243535
 20
43.273528
 30
0.0
  0
LWPOLYLINE
  5
116
100
AcDbEntity
  8
Page_1
 62
7
100
AcDbPolyline
 90
6
 70
1
 10
22.254363
 20
43.591027
 30
0.0
 10
20.243535
 20
43.273528
 30
0.0
 10
22.254363
 20
42.977195
 30
0.0
 10
22.254363
 20
43.591027
 30
0.0
 10
20.243535
 20
43.273528
 30
0.0
 10
22.254363
 20
42.977195
 30
0.0
  0
LWPOLYLINE
  5
117
100
AcDbEntity
  8
Page_1
 62
7
100
AcDbPolyline
 90
2
 70
0
 10
37.896489
 20
43.273528
 30
0.0
 10
39.886151
 20
43.273528
 30
0.0
  0
LWPOLYLINE
  5
118
100
AcDbEntity
  8
Page_1
 62
7
100
AcDbPolyline
 90
6
 70
1
 10
37.896489
 20
42.977195
 30
0.0
 10
39.886151
 20
43.273528
 30
0.0
 10
37.896489
 20
43.591027
 30
0.0
 10
37.896489
 20
42.977195
 30
0.0
 10
39.886151
 20
43.273528
 30
0.0
 10
37.896489
 20
43.591027
 30
0.0
  0
LWPOLYLINE
  5
119
100
AcDbEntity
  8
Page_1
 62
7
100
AcDbPolyline
 90
2
 70
0
 10
22.254363
 20
43.273528
 30
0.0
 10
26.064353
 20
43.273528
 30
0.0
  0
LWPOLYLINE
  5
11a
100
AcDbEntity
  8
Page_1
 62
7
100
AcDbPolyline
 90
2
 70
0
 10
34.065333
 20
43.273528
 30
0.0
 10
37.896489
 20
43.273528
 30
0.0
  0
LWPOLYLINE
  5
11b
100
AcDbEntity
  8
Page_1
 62
7
100
AcDbPolyline
 90
2
 70
0
 10
39.886151
 20
38.320541
 30
0.0
 10
39.886151
 20
46.448520
 30
0.0
  0
LWPOLYLINE
  5
11c
100
AcDbEntity
  8
Page_1
 62
7
100
AcDbPolyline
 90
2
 70
0
 10
20.243535
 20
36.648378
 30
0.0
 10
20.243535
 20
46.448520
 30
0.0
  0
LWPOLYLINE
  5
11d
100
AcDbEntity
  8
Page_1
 62
7
100
AcDbPolyline
 90
2
 70
0
 10
11.290058
 20
9.301115
 30
0.0
 10
11.290058
 20
11.290776
 30
0.0
  0
LWPOLYLINE
  5
11e
100
AcDbEntity
  8
Page_1
 62
7
100
AcDbPolyline
 90
6
 70
1
 10
11.586390
 20
9.301115
 30
0.0
 10
11.290058
 20
11.290776
 30
0.0
 10
10.972558
 20
9.301115
 30
0.0
 10
11.586390
 20
9.301115
 30
0.0
 10
11.290058
 20
11.290776
 30
0.0
 10
10.972558
 20
9.301115
 30
0.0
  0
LWPOLYLINE
  5
11f
100
AcDbEntity
  8
Page_1
 62
7
100
AcDbPolyline
 90
2
 70
0
 10
11.290058
 20
14.063603
 30
0.0
 10
11.290058
 20
12.052774
 30
0.0
  0
LWPOLYLINE
  5
120
100
AcDbEntity
  8
Page_1
 62
7
100
AcDbPolyline
 90
6
 70
1
 10
10.972558
 20
14.063603
 30
0.0
 10
11.290058
 20
12.052774
 30
0.0
 10
11.586390
 20
14.063603
 30
0.0
 10
10.972558
 20
14.063603
 30
0.0
 10
11.290058
 20
12.052774
 30
0.0
 10
11.586390
 20
14.063603
 30
0.0
  0
LWPOLYLINE
  5
121
100
AcDbEntity
  8
Page_1
 62
7
100
AcDbPolyline
 90
2
 70
0
 10
11.290058
 20
9.301115
 30
0.0
 10
11.290058
 20
7.290287
 30
0.0
  0
LWPOLYLINE
  5
122
100
AcDbEntity
  8
Page_1
 62
7
100
AcDbPolyline
 90
2
 70
0
 10
11.290058
 20
14.063603
 30
0.0
 10
11.290058
 20
16.074431
 30
0.0
  0
LWPOLYLINE
  5
123
100
AcDbEntity
  8
Page_1
 62
7
100
AcDbPolyline
 90
2
 70
0
 10
19.227537
 20
11.290776
 30
0.0
 10
8.115066
 20
11.290776
 30
0.0
  0
LWPOLYLINE
  5
124
100
AcDbEntity
  8
Page_1
 62
7
100
AcDbPolyline
 90
3
 70
0
 10
11.290058
 20
7.290287
 30
0.0
 10
11.290058
 20
4.284628
 30
0.0
 10
8.030399
 20
4.284628
 30
0.0
  0
LWPOLYLINE
  5
125
100
AcDbEntity
  8
Page_1
 62
7
100
AcDbPolyline
 90
2
 70
0
 10
30.022510
 20
12.052774
 30
0.0
 10
8.115066
 20
12.052774
 30
0.0
  0
LWPOLYLINE
  5
126
100
AcDbEntity
  8
Page_1
 62
7
100
AcDbPolyline
 90
2
 70
0
 10
18.232706
 20
3.226297
 30
0.0
 10
20.243535
 20
3.226297
 30
0.0
  0
LWPOLYLINE
  5
127
100
AcDbEntity
  8
Page_1
 62
7
100
AcDbPolyline
 90
6
 70
1
 10
18.232706
 20
2.908798
 30
0.0
 10
20.243535
 20
3.226297
 30
0.0
 10
18.232706
 20
3.522630
 30
0.0
 10
18.232706
 20
2.908798
 30
0.0
 10
20.243535
 20
3.226297
 30
0.0
 10
18.232706
 20
3.522630
 30
0.0
  0
LWPOLYLINE
  5
128
100
AcDbEntity
  8
Page_1
 62
7
100
AcDbPolyline
 90
2
 70
0
 10
33.155168
 20
3.226297
 30
0.0
 10
31.144340
 20
3.226297
 30
0.0
  0
LWPOLYLINE
  5
129
100
AcDbEntity
  8
Page_1
 62
7
100
AcDbPolyline
 90
6
 70
1
 10
33.155168
 20
3.522630
 30
0.0
 10
31.144340
 20
3.226297
 30
0.0
 10
33.155168
 20
2.908798
 30
0.0
 10
33.155168
 20
3.522630
 30
0.0
 10
31.144340
 20
3.226297
 30
0.0
 10
33.155168
 20
2.908798
 30
0.0
  0
LWPOLYLINE
  5
12a
100
AcDbEntity
  8
Page_1
 62
7
100
AcDbPolyline
 90
2
 70
0
 10
18.232706
 20
3.226297
 30
0.0
 10
16.243045
 20
3.226297
 30
0.0
  0
LWPOLYLINE
  5
12b
100
AcDbEntity
  8
Page_1
 62
7
100
AcDbPolyline
 90
2
 70
0
 10
33.155168
 20
3.226297
 30
0.0
 10
35.165996
 20
3.226297
 30
0.0
  0
LWPOLYLINE
  5
12c
100
AcDbEntity
  8
Page_1
 62
7
100
AcDbPolyline
 90
2
 70
0
 10
20.243535
 20
10.317112
 30
0.0
 10
20.243535
 20
0.051305
 30
0.0
  0
LWPOLYLINE
  5
12d
100
AcDbEntity
  8
Page_1
 62
7
100
AcDbPolyline
 90
2
 70
0
 10
31.144340
 20
10.909777
 30
0.0
 10
31.144340
 20
0.051305
 30
0.0
  0
LWPOLYLINE
  5
12e
100
AcDbEntity
  8
Page_1
 62
7
100
AcDbPolyline
 90
2
 70
0
 10
11.290058
 20
14.063603
 30
0.0
 10
11.290058
 20
12.052774
 30
0.0
  0
LWPOLYLINE
  5
12f
100
AcDbEntity
  8
Page_1
 62
7
100
AcDbPolyline
 90
6
 70
1
 10
10.972558
 20
14.063603
 30
0.0
 10
11.290058
 20
12.052774
 30
0.0
 10
11.586390
 20
14.063603
 30
0.0
 10
10.972558
 20
14.063603
 30
0.0
 10
11.290058
 20
12.052774
 30
0.0
 10
11.586390
 20
14.063603
 30
0.0
  0
LWPOLYLINE
  5
130
100
AcDbEntity
  8
Page_1
 62
7
100
AcDbPolyline
 90
2
 70
0
 10
11.290058
 20
32.859555
 30
0.0
 10
11.290058
 20
34.870383
 30
0.0
  0
LWPOLYLINE
  5
131
100
AcDbEntity
  8
Page_1
 62
7
100
AcDbPolyline
 90
6
 70
1
 10
11.586390
 20
32.859555
 30
0.0
 10
11.290058
 20
34.870383
 30
0.0
 10
10.972558
 20
32.859555
 30
0.0
 10
11.586390
 20
32.859555
 30
0.0
 10
11.290058
 20
34.870383
 30
0.0
 10
10.972558
 20
32.859555
 30
0.0
  0
LWPOLYLINE
  5
132
100
AcDbEntity
  8
Page_1
 62
7
100
AcDbPolyline
 90
2
 70
0
 10
11.290058
 20
14.063603
 30
0.0
 10
11.290058
 20
20.180754
 30
0.0
  0
LWPOLYLINE
  5
133
100
AcDbEntity
  8
Page_1
 62
7
100
AcDbPolyline
 90
2
 70
0
 10
11.290058
 20
26.763570
 30
0.0
 10
11.290058
 20
32.859555
 30
0.0
  0
LWPOLYLINE
  5
134
100
AcDbEntity
  8
Page_1
 62
7
100
AcDbPolyline
 90
2
 70
0
 10
30.022510
 20
12.052774
 30
0.0
 10
8.115066
 20
12.052774
 30
0.0
  0
LWPOLYLINE
  5
135
100
AcDbEntity
  8
Page_1
 62
7
100
AcDbPolyline
 90
2
 70
0
 10
30.022510
 20
34.870383
 30
0.0
 10
8.115066
 20
34.870383
 30
0.0
  0
LWPOLYLINE
  5
136
100
AcDbEntity
  8
Page_1
 62
7
100
AcDbPolyline
 90
2
 70
0
 10
33.155168
 20
3.332130
 30
0.0
 10
31.144340
 20
3.332130
 30
0.0
  0
LWPOLYLINE
  5
137
100
AcDbEntity
  8
Page_1
 62
7
100
AcDbPolyline
 90
6
 70
1
 10
33.155168
 20
3.628463
 30
0.0
 10
31.144340
 20
3.332130
 30
0.0
 10
33.155168
 20
3.014631
 30
0.0
 10
33.155168
 20
3.628463
 30
0.0
 10
31.144340
 20
3.332130
 30
0.0
 10
33.155168
 20
3.014631
 30
0.0
  0
LWPOLYLINE
  5
138
100
AcDbEntity
  8
Page_1
 62
7
100
AcDbPolyline
 90
2
 70
0
 10
49.157127
 20
3.332130
 30
0.0
 10
51.167956
 20
3.332130
 30
0.0
  0
LWPOLYLINE
  5
139
100
AcDbEntity
  8
Page_1
 62
7
100
AcDbPolyline
 90
6
 70
1
 10
49.157127
 20
3.014631
 30
0.0
 10
51.167956
 20
3.332130
 30
0.0
 10
49.157127
 20
3.628463
 30
0.0
 10
49.157127
 20
3.014631
 30
0.0
 10
51.167956
 20
3.332130
 30
0.0
 10
49.157127
 20
3.628463
 30
0.0
  0
LWPOLYLINE
  5
13a
100
AcDbEntity
  8
Page_1
 62
7
100
AcDbPolyline
 90
2
 70
0
 10
33.155168
 20
3.332130
 30
0.0
 10
37.155658
 20
3.332130
 30
0.0
  0
LWPOLYLINE
  5
13b
100
AcDbEntity
  8
Page_1
 62
7
100
AcDbPolyline
 90
2
 70
0
 10
45.156638
 20
3.332130
 30
0.0
 10
49.157127
 20
3.332130
 30
0.0
  0
LWPOLYLINE
  5
13c
100
AcDbEntity
  8
Page_1
 62
7
100
AcDbPolyline
 90
2
 70
0
 10
31.144340
 20
10.909777
 30
0.0
 10
31.144340
 20
0.157138
 30
0.0
  0
LWPOLYLINE
  5
13d
100
AcDbEntity
  8
Page_1
 62
7
100
AcDbPolyline
 90
2
 70
0
 10
51.167956
 20
10.909777
 30
0.0
 10
51.167956
 20
0.157138
 30
0.0
  0
LWPOLYLINE
  5
13e
100
AcDbEntity
  8
Page_1
 62
7
100
AcDbPolyline
 90
2
 70
0
 10
31.144340
 20
12.052774
 30
0.0
 10
31.398339
 20
12.052774
 30
0.0
  0
LWPOLYLINE
  5
13f
100
AcDbEntity
  8
Page_1
 62
7
100
AcDbPolyline
 90
2
 70
0
 10
31.652339
 20
12.052774
 30
0.0
 10
32.287337
 20
12.052774
 30
0.0
  0
LWPOLYLINE
  5
140
100
AcDbEntity
  8
Page_1
 62
7
100
AcDbPolyline
 90
2
 70
0
 10
31.144340
 20
12.052774
 30
0.0
 10
30.911507
 20
12.052774
 30
0.0
  0
LWPOLYLINE
  5
141
100
AcDbEntity
  8
Page_1
 62
7
100
AcDbPolyline
 90
2
 70
0
 10
30.657508
 20
12.052774
 30
0.0
 10
30.022510
 20
12.052774
 30
0.0
  0
LWPOLYLINE
  5
142
100
AcDbEntity
  8
Page_1
 62
7
100
AcDbPolyline
 90
2
 70
0
 10
31.144340
 20
12.052774
 30
0.0
 10
31.144340
 20
12.306774
 30
0.0
  0
LWPOLYLINE
  5
143
100
AcDbEntity
  8
Page_1
 62
7
100
AcDbPolyline
 90
2
 70
0
 10
31.144340
 20
12.560773
 30
0.0
 10
31.144340
 20
13.195771
 30
0.0
  0
LWPOLYLINE
  5
144
100
AcDbEntity
  8
Page_1
 62
7
100
AcDbPolyline
 90
2
 70
0
 10
31.144340
 20
12.052774
 30
0.0
 10
31.144340
 20
11.841108
 30
0.0
  0
LWPOLYLINE
  5
145
100
AcDbEntity
  8
Page_1
 62
7
100
AcDbPolyline
 90
2
 70
0
 10
31.144340
 20
11.587109
 30
0.0
 10
31.144340
 20
10.909777
 30
0.0
  0
LWPOLYLINE
  5
146
100
AcDbEntity
  8
Page_1
 62
7
100
AcDbPolyline
 90
2
 70
0
 10
51.167956
 20
12.052774
 30
0.0
 10
51.421955
 20
12.052774
 30
0.0
  0
LWPOLYLINE
  5
147
100
AcDbEntity
  8
Page_1
 62
7
100
AcDbPolyline
 90
2
 70
0
 10
51.675954
 20
12.052774
 30
0.0
 10
52.310953
 20
12.052774
 30
0.0
  0
LWPOLYLINE
  5
148
100
AcDbEntity
  8
Page_1
 62
7
100
AcDbPolyline
 90
2
 70
0
 10
51.167956
 20
12.052774
 30
0.0
 10
50.913956
 20
12.052774
 30
0.0
  0
LWPOLYLINE
  5
149
100
AcDbEntity
  8
Page_1
 62
7
100
AcDbPolyline
 90
2
 70
0
 10
50.659957
 20
12.052774
 30
0.0
 10
50.024958
 20
12.052774
 30
0.0
  0
LWPOLYLINE
  5
14a
100
AcDbEntity
  8
Page_1
 62
7
100
AcDbPolyline
 90
2
 70
0
 10
51.167956
 20
12.052774
 30
0.0
 10
51.167956
 20
12.306774
 30
0.0
  0
LWPOLYLINE
  5
14b
100
AcDbEntity
  8
Page_1
 62
7
100
AcDbPolyline
 90
2
 70
0
 10
51.167956
 20
12.560773
 30
0.0
 10
51.167956
 20
13.195771
 30
0.0
  0
LWPOLYLINE
  5
14c
100
AcDbEntity
  8
Page_1
 62
7
100
AcDbPolyline
 90
2
 70
0
 10
51.167956
 20
12.052774
 30
0.0
 10
51.167956
 20
11.841108
 30
0.0
  0
LWPOLYLINE
  5
14d
100
AcDbEntity
  8
Page_1
 62
7
100
AcDbPolyline
 90
2
 70
0
 10
51.167956
 20
11.587109
 30
0.0
 10
51.167956
 20
10.909777
 30
0.0
  0
LWPOLYLINE
  5
14e
100
AcDbEntity
  8
Page_1
 62
7
100
AcDbPolyline
 90
2
 70
0
 10
51.167956
 20
34.870383
 30
0.0
 10
51.421955
 20
34.870383
 30
0.0
  0
LWPOLYLINE
  5
14f
100
AcDbEntity
  8
Page_1
 62
7
100
AcDbPolyline
 90
2
 70
0
 10
51.675954
 20
34.870383
 30
0.0
 10
52.310953
 20
34.870383
 30
0.0
  0
LWPOLYLINE
  5
150
100
AcDbEntity
  8
Page_1
 62
7
100
AcDbPolyline
 90
2
 70
0
 10
51.167956
 20
34.870383
 30
0.0
 10
50.913956
 20
34.870383
 30
0.0
  0
LWPOLYLINE
  5
151
100
AcDbEntity
  8
Page_1
 62
7
100
AcDbPolyline
 90
2
 70
0
 10
50.659957
 20
34.870383
 30
0.0
 10
50.024958
 20
34.870383
 30
0.0
  0
LWPOLYLINE
  5
152
100
AcDbEntity
  8
Page_1
 62
7
100
AcDbPolyline
 90
2
 70
0
 10
51.167956
 20
34.870383
 30
0.0
 10
51.167956
 20
35.124382
 30
0.0
  0
LWPOLYLINE
  5
153
100
AcDbEntity
  8
Page_1
 62
7
100
AcDbPolyline
 90
2
 70
0
 10
51.167956
 20
35.378381
 30
0.0
 10
51.167956
 20
36.013380
 30
0.0
  0
LWPOLYLINE
  5
154
100
AcDbEntity
  8
Page_1
 62
7
100
AcDbPolyline
 90
2
 70
0
 10
51.167956
 20
34.870383
 30
0.0
 10
51.167956
 20
34.616383
 30
0.0
  0
LWPOLYLINE
  5
155
100
AcDbEntity
  8
Page_1
 62
7
100
AcDbPolyline
 90
2
 70
0
 10
51.167956
 20
34.362384
 30
0.0
 10
51.167956
 20
33.727386
 30
0.0
  0
LWPOLYLINE
  5
156
100
AcDbEntity
  8
Page_1
 62
7
100
AcDbPolyline
 90
2
 70
0
 10
31.144340
 20
34.870383
 30
0.0
 10
31.398339
 20
34.870383
 30
0.0
  0
LWPOLYLINE
  5
157
100
AcDbEntity
  8
Page_1
 62
7
100
AcDbPolyline
 90
2
 70
0
 10
31.652339
 20
34.870383
 30
0.0
 10
32.287337
 20
34.870383
 30
0.0
  0
LWPOLYLINE
  5
158
100
AcDbEntity
  8
Page_1
 62
7
100
AcDbPolyline
 90
2
 70
0
 10
31.144340
 20
34.870383
 30
0.0
 10
30.911507
 20
34.870383
 30
0.0
  0
LWPOLYLINE
  5
159
100
AcDbEntity
  8
Page_1
 62
7
100
AcDbPolyline
 90
2
 70
0
 10
30.657508
 20
34.870383
 30
0.0
 10
30.022510
 20
34.870383
 30
0.0
  0
LWPOLYLINE
  5
15a
100
AcDbEntity
  8
Page_1
 62
7
100
AcDbPolyline
 90
2
 70
0
 10
31.144340
 20
34.870383
 30
0.0
 10
31.144340
 20
35.124382
 30
0.0
  0
LWPOLYLINE
  5
15b
100
AcDbEntity
  8
Page_1
 62
7
100
AcDbPolyline
 90
2
 70
0
 10
31.144340
 20
35.378381
 30
0.0
 10
31.144340
 20
36.013380
 30
0.0
  0
LWPOLYLINE
  5
15c
100
AcDbEntity
  8
Page_1
 62
7
100
AcDbPolyline
 90
2
 70
0
 10
31.144340
 20
34.870383
 30
0.0
 10
31.144340
 20
34.616383
 30
0.0
  0
LWPOLYLINE
  5
15d
100
AcDbEntity
  8
Page_1
 62
7
100
AcDbPolyline
 90
2
 70
0
 10
31.144340
 20
34.362384
 30
0.0
 10
31.144340
 20
33.727386
 30
0.0
  0
ENDSEC
  0
SECTION
  2
OBJECTS
  0
DICTIONARY
  5
C
330
0
100
AcDbDictionary
  3
ACAD_GROUP
350
D
  3
ACAD_MLINESTYLE
350
17
  0
DICTIONARY
  5
D
330
C
100
AcDbDictionary
  0
DICTIONARY
  5
1A
330
C
100
AcDbDictionary
  0
DICTIONARY
  5
17
330
C
100
AcDbDictionary
  3
STANDARD
350
18
  0
DICTIONARY
  5
19
330
C
100
AcDbDictionary
  0
ENDSEC
  0
EOF
